1º ano/LSD/aula8/parte2/simulation/qsim/DrinksMachine.msim.vcd
$comment
	File created using the following command:
		vcd file DrinksMachine.msim.vcd -direction
$end
$date
	Mon May 07 18:14:18 2018
$end
$version
	ModelSim Version 10.5b
$end
$timescale
	1ps
$end

$scope module drinksfsm_vhd_vec_tst $end
$var wire 1 ! clk $end
$var wire 1 " coin20 $end
$var wire 1 # coin50 $end
$var wire 1 $ drinkOut $end
$var wire 1 % reset $end

$scope module i1 $end
$var wire 1 & gnd $end
$var wire 1 ' vcc $end
$var wire 1 ( unknown $end
$var wire 1 ) devoe $end
$var wire 1 * devclrn $end
$var wire 1 + devpor $end
$var wire 1 , ww_devoe $end
$var wire 1 - ww_devclrn $end
$var wire 1 . ww_devpor $end
$var wire 1 / ww_clk $end
$var wire 1 0 ww_reset $end
$var wire 1 1 ww_coin20 $end
$var wire 1 2 ww_coin50 $end
$var wire 1 3 ww_drinkOut $end
$var wire 1 4 \drinkOut~output_o\ $end
$var wire 1 5 \clk~input_o\ $end
$var wire 1 6 \coin20~input_o\ $end
$var wire 1 7 \reset~input_o\ $end
$var wire 1 8 \Selector1~0_combout\ $end
$var wire 1 9 \coin50~input_o\ $end
$var wire 1 : \Selector9~0_combout\ $end
$var wire 1 ; \s_nextState.CLEARED_571~combout\ $end
$var wire 1 < \s_currentState~16_combout\ $end
$var wire 1 = \s_currentState.CLEARED~q\ $end
$var wire 1 > \Selector2~0_combout\ $end
$var wire 1 ? \s_nextState.E20_531~combout\ $end
$var wire 1 @ \s_currentState~17_combout\ $end
$var wire 1 A \s_currentState.E20~q\ $end
$var wire 1 B \Selector3~0_combout\ $end
$var wire 1 C \s_nextState.E40_491~combout\ $end
$var wire 1 D \s_currentState~13_combout\ $end
$var wire 1 E \s_currentState.E40~q\ $end
$var wire 1 F \Selector5~0_combout\ $end
$var wire 1 G \s_nextState.E60_411~combout\ $end
$var wire 1 H \s_currentState~11_combout\ $end
$var wire 1 I \s_currentState.E60~q\ $end
$var wire 1 J \Selector4~0_combout\ $end
$var wire 1 K \s_nextState.E50_451~combout\ $end
$var wire 1 L \s_currentState~12_combout\ $end
$var wire 1 M \s_currentState.E50~q\ $end
$var wire 1 N \Selector0~0_combout\ $end
$var wire 1 O \Selector6~0_combout\ $end
$var wire 1 P \s_nextState.E70_371~combout\ $end
$var wire 1 Q \s_currentState~14_combout\ $end
$var wire 1 R \s_currentState.E70~q\ $end
$var wire 1 S \Selector7~0_combout\ $end
$var wire 1 T \s_nextState.E80_331~combout\ $end
$var wire 1 U \s_currentState~15_combout\ $end
$var wire 1 V \s_currentState.E80~q\ $end
$var wire 1 W \Selector0~1_combout\ $end
$var wire 1 X \s_nextState.DRINK_291~combout\ $end
$var wire 1 Y \s_currentState~10_combout\ $end
$var wire 1 Z \s_currentState.DRINK~q\ $end
$upscope $end
$upscope $end
$enddefinitions $end
#0
$dumpvars
0!
0"
0#
0$
0%
0&
1'
x(
1)
1*
1+
1,
1-
1.
0/
00
01
02
03
04
05
06
07
08
09
0:
x;
x<
0=
0>
x?
x@
0A
0B
xC
xD
0E
0F
xG
xH
0I
0J
xK
xL
0M
0N
0O
xP
xQ
0R
0S
xT
xU
0V
0W
xX
xY
0Z
$end
#20000
1"
11
16
1:
1>
1J
0;
1?
0C
0G
0K
0P
0T
0X
0Y
0U
0Q
0L
0H
0D
1@
1<
#30000
1!
1/
15
1=
1A
1B
0>
0?
1C
1D
0@
#60000
0!
0/
05
#90000
1!
1/
15
0A
1E
1F
0B
0C
1G
1H
0D
#120000
0!
0/
05
#150000
1!
1/
15
0E
1I
1S
0F
0G
1T
1U
0H
#180000
0!
0"
0/
01
06
05
0:
1N
0S
1W
#200000
1#
12
19
1:
0T
1X
1Y
0U
#210000
1!
1/
15
0I
1Z
18
0:
0N
0W
14
13
1$
#240000
0!
0#
0/
02
09
05
#270000
1!
1/
15
#300000
0!
0/
05
#320000
1#
12
19
#330000
1!
1/
15
#340000
0#
02
09
#360000
0!
0/
05
#380000
1"
11
16
#390000
1!
1/
15
#420000
0!
0/
05
#450000
1!
1/
15
#460000
0"
01
06
#480000
0!
0/
05
#500000
1%
10
17
1:
0<
0Y
1;
0X
#510000
1!
1/
15
0=
0Z
04
03
0$
#540000
0!
0/
05
#570000
1!
1/
15
#600000
0!
0%
0/
00
07
05
08
0:
0J
#620000
1#
12
19
1:
0;
1K
1L
1<
#630000
1!
1/
15
1=
1M
1N
1J
0K
1W
1X
0L
1Y
#660000
0!
0/
05
#680000
0#
02
09
0:
#690000
1!
1/
15
0M
1Z
18
0N
0W
14
13
1$
#720000
0!
1%
0/
10
17
05
1:
0<
0Y
1;
0X
#750000
1!
1/
15
0=
0Z
04
03
0$
#780000
0!
0%
0/
00
07
05
08
0:
0J
#800000
1#
12
19
1:
0;
1K
1L
1<
#810000
1!
1/
15
1=
1M
1N
1J
0K
1W
1X
0L
1Y
#820000
0#
02
09
0:
#840000
0!
0/
05
#860000
1"
11
16
1:
0N
1O
0W
1P
1Q
0X
0Y
#870000
1!
1/
15
0M
1R
1W
0O
0P
1X
1Y
0Q
#900000
0!
0/
05
#930000
1!
1/
15
0R
1Z
18
0:
0W
14
13
1$
#940000
0"
01
06
#960000
0!
0/
05
#990000
1!
1/
15
