1º ano/LSD/Mini_projeto/Fase3/simulation/qsim/Mini_projecto_fase3.msim.vcd
$comment
	File created using the following command:
		vcd file Mini_projecto_fase3.msim.vcd -direction
$end
$date
	Tue Apr 10 18:15:14 2018
$end
$version
	ModelSim Version 10.5b
$end
$timescale
	1ps
$end

$scope module timercounter_v2_vhd_vec_tst $end
$var wire 1 ! clk $end
$var wire 1 " countOut [15] $end
$var wire 1 # countOut [14] $end
$var wire 1 $ countOut [13] $end
$var wire 1 % countOut [12] $end
$var wire 1 & countOut [11] $end
$var wire 1 ' countOut [10] $end
$var wire 1 ( countOut [9] $end
$var wire 1 ) countOut [8] $end
$var wire 1 * countOut [7] $end
$var wire 1 + countOut [6] $end
$var wire 1 , countOut [5] $end
$var wire 1 - countOut [4] $end
$var wire 1 . countOut [3] $end
$var wire 1 / countOut [2] $end
$var wire 1 0 countOut [1] $end
$var wire 1 1 countOut [0] $end
$var wire 1 2 reset $end
$var wire 1 3 set $end
$var wire 1 4 setM $end
$var wire 1 5 setS $end
$var wire 1 6 startStop $end
$var wire 1 7 termCount $end

$scope module i1 $end
$var wire 1 8 gnd $end
$var wire 1 9 vcc $end
$var wire 1 : unknown $end
$var wire 1 ; devoe $end
$var wire 1 < devclrn $end
$var wire 1 = devpor $end
$var wire 1 > ww_devoe $end
$var wire 1 ? ww_devclrn $end
$var wire 1 @ ww_devpor $end
$var wire 1 A ww_clk $end
$var wire 1 B ww_reset $end
$var wire 1 C ww_startStop $end
$var wire 1 D ww_setM $end
$var wire 1 E ww_setS $end
$var wire 1 F ww_set $end
$var wire 1 G ww_countOut [15] $end
$var wire 1 H ww_countOut [14] $end
$var wire 1 I ww_countOut [13] $end
$var wire 1 J ww_countOut [12] $end
$var wire 1 K ww_countOut [11] $end
$var wire 1 L ww_countOut [10] $end
$var wire 1 M ww_countOut [9] $end
$var wire 1 N ww_countOut [8] $end
$var wire 1 O ww_countOut [7] $end
$var wire 1 P ww_countOut [6] $end
$var wire 1 Q ww_countOut [5] $end
$var wire 1 R ww_countOut [4] $end
$var wire 1 S ww_countOut [3] $end
$var wire 1 T ww_countOut [2] $end
$var wire 1 U ww_countOut [1] $end
$var wire 1 V ww_countOut [0] $end
$var wire 1 W ww_termCount $end
$var wire 1 X \countOut[0]~output_o\ $end
$var wire 1 Y \countOut[1]~output_o\ $end
$var wire 1 Z \countOut[2]~output_o\ $end
$var wire 1 [ \countOut[3]~output_o\ $end
$var wire 1 \ \countOut[4]~output_o\ $end
$var wire 1 ] \countOut[5]~output_o\ $end
$var wire 1 ^ \countOut[6]~output_o\ $end
$var wire 1 _ \countOut[7]~output_o\ $end
$var wire 1 ` \countOut[8]~output_o\ $end
$var wire 1 a \countOut[9]~output_o\ $end
$var wire 1 b \countOut[10]~output_o\ $end
$var wire 1 c \countOut[11]~output_o\ $end
$var wire 1 d \countOut[12]~output_o\ $end
$var wire 1 e \countOut[13]~output_o\ $end
$var wire 1 f \countOut[14]~output_o\ $end
$var wire 1 g \countOut[15]~output_o\ $end
$var wire 1 h \termCount~output_o\ $end
$var wire 1 i \set~input_o\ $end
$var wire 1 j \clk~input_o\ $end
$var wire 1 k \Add7~0_combout\ $end
$var wire 1 l \Add7~1\ $end
$var wire 1 m \Add7~2_combout\ $end
$var wire 1 n \s_count~11_combout\ $end
$var wire 1 o \Add1~0_combout\ $end
$var wire 1 p \s_startValue[0]~37_combout\ $end
$var wire 1 q \setS~input_o\ $end
$var wire 1 r \setM~input_o\ $end
$var wire 1 s \process_0~0_combout\ $end
$var wire 1 t \startStop~input_o\ $end
$var wire 1 u \s_enable~0_combout\ $end
$var wire 1 v \s_enable~q\ $end
$var wire 1 w \reset~input_o\ $end
$var wire 1 x \s_startValue[0]~2_combout\ $end
$var wire 1 y \Add1~1\ $end
$var wire 1 z \Add1~2_combout\ $end
$var wire 1 { \Add1~3\ $end
$var wire 1 | \Add1~4_combout\ $end
$var wire 1 } \Add1~5\ $end
$var wire 1 ~ \Add1~6_combout\ $end
$var wire 1 !! \s_startValue~4_combout\ $end
$var wire 1 "! \Equal1~0_combout\ $end
$var wire 1 #! \s_startValue~3_combout\ $end
$var wire 1 $! \s_freqCount[1]~0_combout\ $end
$var wire 1 %! \s_freqCount[0]~2_combout\ $end
$var wire 1 &! \s_freqCount[1]~1_combout\ $end
$var wire 1 '! \s_termCount~0_combout\ $end
$var wire 1 (! \Add6~7\ $end
$var wire 1 )! \Add6~8_combout\ $end
$var wire 1 *! \Add7~7\ $end
$var wire 1 +! \Add7~9\ $end
$var wire 1 ,! \Add7~10_combout\ $end
$var wire 1 -! \s_count~17_combout\ $end
$var wire 1 .! \Add0~1_cout\ $end
$var wire 1 /! \Add0~3_cout\ $end
$var wire 1 0! \Add0~5_cout\ $end
$var wire 1 1! \Add0~7_cout\ $end
$var wire 1 2! \Add0~8_combout\ $end
$var wire 1 3! \Add1~7\ $end
$var wire 1 4! \Add1~8_combout\ $end
$var wire 1 5! \s_startValue~5_combout\ $end
$var wire 1 6! \Add0~9\ $end
$var wire 1 7! \Add0~10_combout\ $end
$var wire 1 8! \Add0~11\ $end
$var wire 1 9! \Add0~12_combout\ $end
$var wire 1 :! \Add1~9\ $end
$var wire 1 ;! \Add1~11\ $end
$var wire 1 <! \Add1~12_combout\ $end
$var wire 1 =! \s_startValue~7_combout\ $end
$var wire 1 >! \Add0~13\ $end
$var wire 1 ?! \Add0~14_combout\ $end
$var wire 1 @! \Add1~13\ $end
$var wire 1 A! \Add1~14_combout\ $end
$var wire 1 B! \s_startValue~8_combout\ $end
$var wire 1 C! \Equal0~0_combout\ $end
$var wire 1 D! \Add1~10_combout\ $end
$var wire 1 E! \s_startValue~6_combout\ $end
$var wire 1 F! \s_count[5]~0_combout\ $end
$var wire 1 G! \Add6~9\ $end
$var wire 1 H! \Add6~10_combout\ $end
$var wire 1 I! \Add7~11\ $end
$var wire 1 J! \Add7~12_combout\ $end
$var wire 1 K! \s_count[6]~18_combout\ $end
$var wire 1 L! \s_count[6]~19_combout\ $end
$var wire 1 M! \s_count[6]~20_combout\ $end
$var wire 1 N! \Add6~11\ $end
$var wire 1 O! \Add6~12_combout\ $end
$var wire 1 P! \Add7~13\ $end
$var wire 1 Q! \Add7~14_combout\ $end
$var wire 1 R! \s_count~21_combout\ $end
$var wire 1 S! \s_count[7]~1_combout\ $end
$var wire 1 T! \Add6~13\ $end
$var wire 1 U! \Add6~14_combout\ $end
$var wire 1 V! \Add7~15\ $end
$var wire 1 W! \Add7~16_combout\ $end
$var wire 1 X! \s_count~22_combout\ $end
$var wire 1 Y! \Add5~1_cout\ $end
$var wire 1 Z! \Add5~3_cout\ $end
$var wire 1 [! \Add5~5_cout\ $end
$var wire 1 \! \Add5~7_cout\ $end
$var wire 1 ]! \Add5~9_cout\ $end
$var wire 1 ^! \Add5~11_cout\ $end
$var wire 1 _! \Add5~13_cout\ $end
$var wire 1 `! \Add5~14_combout\ $end
$var wire 1 a! \s_count~23_combout\ $end
$var wire 1 b! \Add0~15\ $end
$var wire 1 c! \Add0~16_combout\ $end
$var wire 1 d! \Add1~15\ $end
$var wire 1 e! \Add1~16_combout\ $end
$var wire 1 f! \Add0~17\ $end
$var wire 1 g! \Add0~18_combout\ $end
$var wire 1 h! \Add1~17\ $end
$var wire 1 i! \Add1~18_combout\ $end
$var wire 1 j! \s_startValue~18_combout\ $end
$var wire 1 k! \Add0~19\ $end
$var wire 1 l! \Add0~20_combout\ $end
$var wire 1 m! \Add1~19\ $end
$var wire 1 n! \Add1~20_combout\ $end
$var wire 1 o! \s_startValue~20_combout\ $end
$var wire 1 p! \Add3~1\ $end
$var wire 1 q! \Add3~3\ $end
$var wire 1 r! \Add3~4_combout\ $end
$var wire 1 s! \s_startValue~21_combout\ $end
$var wire 1 t! \s_startValue[8]~16_combout\ $end
$var wire 1 u! \s_startValue[8]~17_combout\ $end
$var wire 1 v! \Add0~21\ $end
$var wire 1 w! \Add0~22_combout\ $end
$var wire 1 x! \Add1~21\ $end
$var wire 1 y! \Add1~22_combout\ $end
$var wire 1 z! \s_startValue~22_combout\ $end
$var wire 1 {! \Add3~5\ $end
$var wire 1 |! \Add3~6_combout\ $end
$var wire 1 }! \s_startValue~23_combout\ $end
$var wire 1 ~! \Add2~1_cout\ $end
$var wire 1 !" \Add2~3_cout\ $end
$var wire 1 "" \Add2~5_cout\ $end
$var wire 1 #" \Add2~7_cout\ $end
$var wire 1 $" \Add2~8_combout\ $end
$var wire 1 %" \Add1~23\ $end
$var wire 1 &" \Add1~24_combout\ $end
$var wire 1 '" \Add3~7\ $end
$var wire 1 (" \Add3~8_combout\ $end
$var wire 1 )" \s_startValue~24_combout\ $end
$var wire 1 *" \Add0~23\ $end
$var wire 1 +" \Add0~24_combout\ $end
$var wire 1 ," \s_startValue~25_combout\ $end
$var wire 1 -" \s_startValue~26_combout\ $end
$var wire 1 ." \Add2~9\ $end
$var wire 1 /" \Add2~10_combout\ $end
$var wire 1 0" \Add1~25\ $end
$var wire 1 1" \Add1~26_combout\ $end
$var wire 1 2" \Add3~9\ $end
$var wire 1 3" \Add3~10_combout\ $end
$var wire 1 4" \s_startValue~27_combout\ $end
$var wire 1 5" \Add0~25\ $end
$var wire 1 6" \Add0~26_combout\ $end
$var wire 1 7" \s_startValue~28_combout\ $end
$var wire 1 8" \s_startValue~29_combout\ $end
$var wire 1 9" \Add2~11\ $end
$var wire 1 :" \Add2~12_combout\ $end
$var wire 1 ;" \Add3~11\ $end
$var wire 1 <" \Add3~12_combout\ $end
$var wire 1 =" \Add1~27\ $end
$var wire 1 >" \Add1~28_combout\ $end
$var wire 1 ?" \s_startValue~30_combout\ $end
$var wire 1 @" \Add0~27\ $end
$var wire 1 A" \Add0~28_combout\ $end
$var wire 1 B" \s_startValue~31_combout\ $end
$var wire 1 C" \s_startValue~32_combout\ $end
$var wire 1 D" \Add2~13\ $end
$var wire 1 E" \Add2~14_combout\ $end
$var wire 1 F" \Add3~13\ $end
$var wire 1 G" \Add3~14_combout\ $end
$var wire 1 H" \Add1~29\ $end
$var wire 1 I" \Add1~30_combout\ $end
$var wire 1 J" \s_startValue~33_combout\ $end
$var wire 1 K" \Add0~29\ $end
$var wire 1 L" \Add0~30_combout\ $end
$var wire 1 M" \s_startValue~34_combout\ $end
$var wire 1 N" \s_startValue~35_combout\ $end
$var wire 1 O" \s_startValue[8]~13_combout\ $end
$var wire 1 P" \s_startValue[8]~14_combout\ $end
$var wire 1 Q" \s_startValue~36_combout\ $end
$var wire 1 R" \Add3~2_combout\ $end
$var wire 1 S" \s_startValue~19_combout\ $end
$var wire 1 T" \s_startValue[8]~9_combout\ $end
$var wire 1 U" \s_startValue[8]~10_combout\ $end
$var wire 1 V" \s_startValue[8]~11_combout\ $end
$var wire 1 W" \s_startValue~12_combout\ $end
$var wire 1 X" \Add3~0_combout\ $end
$var wire 1 Y" \s_startValue~15_combout\ $end
$var wire 1 Z" \s_count~24_combout\ $end
$var wire 1 [" \Add7~17\ $end
$var wire 1 \" \Add7~18_combout\ $end
$var wire 1 ]" \Add5~15\ $end
$var wire 1 ^" \Add5~16_combout\ $end
$var wire 1 _" \s_count~25_combout\ $end
$var wire 1 `" \Add6~15\ $end
$var wire 1 a" \Add6~16_combout\ $end
$var wire 1 b" \s_count~26_combout\ $end
$var wire 1 c" \Add7~19\ $end
$var wire 1 d" \Add7~20_combout\ $end
$var wire 1 e" \Add5~17\ $end
$var wire 1 f" \Add5~18_combout\ $end
$var wire 1 g" \s_count~27_combout\ $end
$var wire 1 h" \Add6~17\ $end
$var wire 1 i" \Add6~18_combout\ $end
$var wire 1 j" \s_count~28_combout\ $end
$var wire 1 k" \s_count[12]~4_combout\ $end
$var wire 1 l" \Equal5~0_combout\ $end
$var wire 1 m" \s_count[0]~8_combout\ $end
$var wire 1 n" \s_count[12]~5_combout\ $end
$var wire 1 o" \s_count[12]~10_combout\ $end
$var wire 1 p" \Add5~19\ $end
$var wire 1 q" \Add5~20_combout\ $end
$var wire 1 r" \s_count~29_combout\ $end
$var wire 1 s" \Add6~19\ $end
$var wire 1 t" \Add6~20_combout\ $end
$var wire 1 u" \Add7~21\ $end
$var wire 1 v" \Add7~22_combout\ $end
$var wire 1 w" \s_count~30_combout\ $end
$var wire 1 x" \s_count~31_combout\ $end
$var wire 1 y" \Add4~1_cout\ $end
$var wire 1 z" \Add4~3_cout\ $end
$var wire 1 {" \Add4~5_cout\ $end
$var wire 1 |" \Add4~7_cout\ $end
$var wire 1 }" \Add4~9_cout\ $end
$var wire 1 ~" \Add4~11_cout\ $end
$var wire 1 !# \Add4~13_cout\ $end
$var wire 1 "# \Add4~15_cout\ $end
$var wire 1 ## \Add4~17_cout\ $end
$var wire 1 $# \Add4~19_cout\ $end
$var wire 1 %# \Add4~21_cout\ $end
$var wire 1 &# \Add4~22_combout\ $end
$var wire 1 '# \Add7~23\ $end
$var wire 1 (# \Add7~24_combout\ $end
$var wire 1 )# \Add5~21\ $end
$var wire 1 *# \Add5~22_combout\ $end
$var wire 1 +# \s_count~32_combout\ $end
$var wire 1 ,# \Add6~21\ $end
$var wire 1 -# \Add6~22_combout\ $end
$var wire 1 .# \s_count~33_combout\ $end
$var wire 1 /# \s_count~34_combout\ $end
$var wire 1 0# \Add7~25\ $end
$var wire 1 1# \Add7~26_combout\ $end
$var wire 1 2# \Add4~23\ $end
$var wire 1 3# \Add4~24_combout\ $end
$var wire 1 4# \Add5~23\ $end
$var wire 1 5# \Add5~24_combout\ $end
$var wire 1 6# \s_count~35_combout\ $end
$var wire 1 7# \Add6~23\ $end
$var wire 1 8# \Add6~24_combout\ $end
$var wire 1 9# \s_count~36_combout\ $end
$var wire 1 :# \Add4~25\ $end
$var wire 1 ;# \Add4~26_combout\ $end
$var wire 1 <# \Add7~27\ $end
$var wire 1 =# \Add7~28_combout\ $end
$var wire 1 ># \Add5~25\ $end
$var wire 1 ?# \Add5~26_combout\ $end
$var wire 1 @# \s_count~37_combout\ $end
$var wire 1 A# \Add6~25\ $end
$var wire 1 B# \Add6~26_combout\ $end
$var wire 1 C# \s_count~38_combout\ $end
$var wire 1 D# \s_count~39_combout\ $end
$var wire 1 E# \Add7~29\ $end
$var wire 1 F# \Add7~30_combout\ $end
$var wire 1 G# \Add4~27\ $end
$var wire 1 H# \Add4~28_combout\ $end
$var wire 1 I# \Add5~27\ $end
$var wire 1 J# \Add5~28_combout\ $end
$var wire 1 K# \s_count~40_combout\ $end
$var wire 1 L# \Add6~27\ $end
$var wire 1 M# \Add6~28_combout\ $end
$var wire 1 N# \s_count~41_combout\ $end
$var wire 1 O# \s_count[12]~3_combout\ $end
$var wire 1 P# \s_count[12]~9_combout\ $end
$var wire 1 Q# \Add7~3\ $end
$var wire 1 R# \Add7~4_combout\ $end
$var wire 1 S# \s_count~12_combout\ $end
$var wire 1 T# \Add7~5\ $end
$var wire 1 U# \Add7~6_combout\ $end
$var wire 1 V# \s_count~13_combout\ $end
$var wire 1 W# \Add6~1_cout\ $end
$var wire 1 X# \Add6~3_cout\ $end
$var wire 1 Y# \Add6~5_cout\ $end
$var wire 1 Z# \Add6~6_combout\ $end
$var wire 1 [# \Add7~8_combout\ $end
$var wire 1 \# \s_count[4]~14_combout\ $end
$var wire 1 ]# \s_count[4]~15_combout\ $end
$var wire 1 ^# \s_count[4]~16_combout\ $end
$var wire 1 _# \s_count[12]~2_combout\ $end
$var wire 1 `# \s_count~6_combout\ $end
$var wire 1 a# \s_count~7_combout\ $end
$var wire 1 b# \countOut~0_combout\ $end
$var wire 1 c# \countOut~1_combout\ $end
$var wire 1 d# \countOut~2_combout\ $end
$var wire 1 e# \countOut~3_combout\ $end
$var wire 1 f# \countOut~4_combout\ $end
$var wire 1 g# \countOut~5_combout\ $end
$var wire 1 h# \countOut~6_combout\ $end
$var wire 1 i# \countOut~7_combout\ $end
$var wire 1 j# \countOut~8_combout\ $end
$var wire 1 k# \countOut~9_combout\ $end
$var wire 1 l# \countOut~10_combout\ $end
$var wire 1 m# \countOut~11_combout\ $end
$var wire 1 n# \countOut~12_combout\ $end
$var wire 1 o# \countOut~13_combout\ $end
$var wire 1 p# \countOut~14_combout\ $end
$var wire 1 q# \countOut~15_combout\ $end
$var wire 1 r# \s_termCount~1_combout\ $end
$var wire 1 s# \s_termCount~q\ $end
$var wire 1 t# \termCount~0_combout\ $end
$var wire 1 u# s_count [15] $end
$var wire 1 v# s_count [14] $end
$var wire 1 w# s_count [13] $end
$var wire 1 x# s_count [12] $end
$var wire 1 y# s_count [11] $end
$var wire 1 z# s_count [10] $end
$var wire 1 {# s_count [9] $end
$var wire 1 |# s_count [8] $end
$var wire 1 }# s_count [7] $end
$var wire 1 ~# s_count [6] $end
$var wire 1 !$ s_count [5] $end
$var wire 1 "$ s_count [4] $end
$var wire 1 #$ s_count [3] $end
$var wire 1 $$ s_count [2] $end
$var wire 1 %$ s_count [1] $end
$var wire 1 &$ s_count [0] $end
$var wire 1 '$ s_startValue [15] $end
$var wire 1 ($ s_startValue [14] $end
$var wire 1 )$ s_startValue [13] $end
$var wire 1 *$ s_startValue [12] $end
$var wire 1 +$ s_startValue [11] $end
$var wire 1 ,$ s_startValue [10] $end
$var wire 1 -$ s_startValue [9] $end
$var wire 1 .$ s_startValue [8] $end
$var wire 1 /$ s_startValue [7] $end
$var wire 1 0$ s_startValue [6] $end
$var wire 1 1$ s_startValue [5] $end
$var wire 1 2$ s_startValue [4] $end
$var wire 1 3$ s_startValue [3] $end
$var wire 1 4$ s_startValue [2] $end
$var wire 1 5$ s_startValue [1] $end
$var wire 1 6$ s_startValue [0] $end
$var wire 1 7$ s_freqCount [1] $end
$var wire 1 8$ s_freqCount [0] $end
$var wire 1 9$ \ALT_INV_s_count[0]~8_combout\ $end
$var wire 1 :$ \ALT_INV_s_enable~q\ $end
$upscope $end
$upscope $end
$enddefinitions $end
#0
$dumpvars
0!
02
03
04
05
06
07
08
19
x:
1;
1<
1=
1>
1?
1@
0A
0B
0C
0D
0E
0F
0W
1X
0Y
0Z
1[
1\
0]
1^
0_
1`
0a
0b
1c
1d
0e
1f
0g
0h
0i
0j
0k
1l
0m
0n
0o
1p
0q
0r
0s
0t
1u
0v
0w
0x
1y
1z
1{
0|
0}
1~
1!!
1"!
0#!
1$!
1%!
0&!
0'!
0(!
0)!
0*!
1+!
0,!
0-!
1.!
0/!
10!
01!
02!
13!
14!
15!
16!
17!
18!
19!
0:!
1;!
1<!
1=!
0>!
0?!
0@!
0A!
0B!
0C!
0D!
0E!
0F!
1G!
1H!
0I!
1J!
1K!
1L!
0M!
0N!
0O!
1P!
0Q!
0R!
0S!
1T!
1U!
0V!
1W!
1X!
0Y!
1Z!
1[!
0\!
0]!
0^!
0_!
0`!
1a!
1b!
1c!
1d!
1e!
0f!
0g!
0h!
0i!
0j!
1k!
0l!
1m!
0n!
0o!
1p!
1q!
0r!
0s!
0t!
0u!
0v!
1w!
0x!
1y!
0z!
0{!
1|!
1}!
1~!
0!"
1""
0#"
0$"
1%"
1&"
1'"
1("
0)"
1*"
1+"
0,"
1-"
1."
1/"
00"
01"
02"
03"
04"
05"
06"
17"
08"
19"
1:"
1;"
1<"
1="
1>"
0?"
1@"
1A"
1B"
1C"
0D"
0E"
0F"
0G"
0H"
0I"
0J"
0K"
0L"
1M"
0N"
1O"
1P"
0Q"
1R"
0S"
1T"
1U"
1V"
0W"
0X"
1Y"
0Z"
1["
0\"
0]"
0^"
0_"
0`"
0a"
0b"
0c"
0d"
1e"
0f"
0g"
1h"
0i"
0j"
0k"
0l"
0m"
0n"
0o"
0p"
1q"
0r"
0s"
1t"
1u"
1v"
1w"
0x"
0y"
1z"
1{"
0|"
0}"
0~"
0!#
0"#
0##
1$#
1%#
1&#
0'#
1(#
1)#
1*#
1+#
1,#
1-#
1.#
0/#
10#
01#
02#
03#
04#
05#
06#
07#
08#
09#
1:#
1;#
0<#
1=#
1>#
1?#
1@#
1A#
1B#
1C#
0D#
1E#
0F#
0G#
0H#
0I#
0J#
0K#
0L#
0M#
0N#
0O#
1P#
0Q#
0R#
0S#
1T#
1U#
0V#
0W#
1X#
1Y#
1Z#
1[#
1\#
1]#
0^#
0_#
1`#
1a#
1b#
0c#
0d#
1e#
1f#
0g#
1h#
0i#
1j#
0k#
0l#
1m#
1n#
0o#
1p#
0q#
0r#
0s#
0t#
19$
1:$
0G
1H
0I
1J
1K
0L
0M
1N
0O
1P
0Q
1R
1S
0T
0U
1V
0u#
0v#
0w#
0x#
0y#
0z#
0{#
0|#
0}#
0~#
0!$
0"$
0#$
0$$
0%$
0&$
0'$
0($
0)$
0*$
0+$
0,$
0-$
0.$
0/$
00$
01$
02$
03$
04$
05$
06$
07$
08$
0"
1#
0$
1%
1&
0'
0(
1)
0*
1+
0,
1-
1.
0/
00
11
$end
#100
1!
1A
1j
18$
0%!
1&!
#200
0!
0A
0j
#300
1!
1A
1j
08$
17$
1%!
#400
0!
0A
0j
#500
1!
1A
1j
18$
0%!
0&!
1'!
1m"
09$
#600
0!
0A
0j
#700
1!
1A
1j
08$
07$
1&$
1k
0l
0b#
1%!
0'!
0m"
1m
1Q#
0a#
19$
1R#
0T#
1n
0X
0U#
1S#
0V
01
1V#
#800
0!
0A
0j
#900
1!
1A
1j
18$
0%!
1&!
#1000
0!
0A
0j
#1100
1!
1A
1j
08$
17$
1%!
#1200
0!
0A
0j
#1300
1!
1A
1j
18$
0%!
0&!
1'!
1m"
09$
#1400
0!
0A
0j
#1500
1!
1A
1j
08$
07$
1%$
1$$
1#$
0&$
0k
1l
1b#
1U#
1*!
0[!
0{"
0Y#
0e#
0R#
1T#
1d#
0m
0Q#
1Y!
1y"
1W#
1c#
1%!
0'!
0m"
0X#
0z"
0Z!
1R#
0n
0U#
0*!
0S#
0Z#
0[#
0V#
1m
1a#
19$
1n
0\#
1[#
1V#
1S#
1[!
1{"
1Y#
1Y
1Z
0[
1X
1Z#
1\#
1U
1T
0S
1V
11
10
1/
0.
#1600
0!
0A
0j
#1700
1!
1A
1j
18$
0%!
1&!
#1800
0!
0A
0j
#1900
1!
1A
1j
08$
17$
1%!
#2000
0!
0A
0j
#2100
1!
1A
1j
18$
0%!
0&!
1'!
1m"
09$
#2200
0!
0A
0j
#2300
1!
1A
1j
08$
07$
1&$
1k
0l
0Y!
0y"
0W#
0b#
1%!
0'!
0m"
1X#
1z"
1Z!
0m
0a#
19$
0n
0[!
0{"
0Y#
0X
0Z#
0V
01
#2400
0!
0A
0j
#2500
1!
1A
1j
18$
0%!
1&!
#2600
0!
0A
0j
#2700
1!
1A
1j
08$
17$
1%!
#2800
0!
0A
0j
#2900
1!
1A
1j
18$
0%!
0&!
1'!
1m"
09$
#3000
0!
0A
0j
#3100
1!
1A
1j
08$
07$
0%$
0&$
0k
1l
1b#
1m
1Q#
0c#
1%!
0'!
0m"
0R#
1n
0m
0Q#
1a#
19$
1R#
0n
0S#
0Y
1X
1S#
0U
1V
11
00
#3200
0!
0A
0j
#3300
1!
1A
1j
18$
0%!
1&!
#3400
0!
0A
0j
#3500
1!
1A
1j
08$
17$
1%!
#3600
0!
0A
0j
#3700
1!
1A
1j
18$
0%!
0&!
1'!
1m"
09$
#3800
0!
0A
0j
#3900
1!
1A
1j
08$
07$
1&$
1k
0l
0b#
1%!
0'!
0m"
1m
1Q#
0a#
19$
0R#
1n
0X
0S#
0V
01
#4000
0!
0A
0j
#4100
1!
1A
1j
18$
0%!
1&!
#4200
0!
0A
0j
#4300
1!
1A
1j
08$
17$
1%!
#4400
0!
0A
0j
#4500
1!
1A
1j
18$
0%!
0&!
1'!
1m"
09$
#4600
0!
0A
0j
#4700
1!
1A
1j
08$
07$
1%$
0$$
0&$
0k
1l
1b#
1R#
0T#
0d#
0m
0Q#
1Y!
1y"
1W#
1c#
1%!
0'!
0m"
0R#
1T#
0n
1U#
1*!
1S#
1m
1a#
19$
1n
0[#
0V#
0U#
0*!
0S#
1Y
0Z
1X
1[#
1V#
0\#
1U
0T
1V
11
10
0/
1\#
#4800
0!
0A
0j
#4900
1!
1A
1j
18$
0%!
1&!
#5000
0!
0A
0j
#5100
1!
1A
1j
08$
17$
1%!
#5200
0!
0A
0j
#5300
1!
1A
1j
18$
0%!
0&!
1'!
1m"
09$
#5400
0!
0A
0j
#5500
1!
1A
1j
08$
07$
1&$
1k
0l
0Y!
0y"
0W#
0b#
1%!
0'!
0m"
0m
0a#
19$
0n
0X
0V
01
#5600
0!
0A
0j
#5700
1!
1A
1j
18$
0%!
1&!
#5800
0!
0A
0j
#5900
1!
1A
1j
08$
17$
1%!
#6000
0!
0A
0j
#6100
1!
1A
1j
18$
0%!
0&!
1'!
1m"
09$
#6200
0!
0A
0j
#6300
1!
1A
1j
08$
07$
0%$
0&$
0k
1l
1b#
1m
1Q#
0c#
1%!
0'!
0m"
1R#
0T#
1n
0m
0Q#
1a#
19$
0R#
1T#
0n
1U#
1*!
1S#
0Y
1X
0[#
0V#
0U#
0*!
0S#
0U
1V
11
00
1[#
1V#
0\#
1\#
#6400
0!
0A
0j
#6500
1!
1A
1j
18$
0%!
1&!
#6600
0!
0A
0j
#6700
1!
1A
1j
08$
17$
1%!
#6800
0!
0A
0j
#6900
1!
1A
1j
18$
0%!
0&!
1'!
1m"
09$
#7000
0!
0A
0j
#7100
1!
1A
1j
08$
07$
1&$
1k
0l
1n"
0b#
1%!
0'!
0m"
1o"
0`#
1m
1Q#
0a#
19$
1R#
0T#
0V#
16#
1K#
0\#
0X
1U#
1*!
0V
01
0[#
#7200
0!
0A
0j
#7300
1!
1A
1j
18$
0%!
1&!
#7400
0!
0A
0j
#7500
1!
1A
1j
08$
17$
1%!
#7600
0!
0A
0j
#7700
1!
1A
1j
18$
0%!
0&!
1'!
1m"
09$
0]#
1^#
#7800
0!
0A
0j
#7900
1!
1A
1j
08$
07$
0#$
1"$
0&$
0k
1l
1b#
1Z#
1(!
1[#
0+!
1\!
1|"
0f#
0U#
0*!
1[!
0n"
1{"
1Y#
1e#
1%!
0'!
0m"
0Z#
0(!
0|"
0o"
1`#
0\!
0[#
1+!
1,!
1I!
1)!
0G!
1\#
0m
0Q#
19$
0R#
1T#
0H!
0J!
0,!
0I!
1V#
1a#
1-!
06#
0K#
1S#
0)!
1G!
0\#
1[
0\
1X
1H!
1F!
1J!
0-!
0K!
1U#
0S#
1S
0R
1V
11
1.
0-
0V#
0F!
1K!
#8000
0!
0A
0j
#8100
1!
1A
1j
18$
0%!
1&!
#8200
0!
0A
0j
#8300
1!
1A
1j
08$
17$
1%!
#8400
0!
0A
0j
#8500
1!
1A
1j
18$
0%!
0&!
1'!
1m"
09$
#8600
0!
0A
0j
#8700
1!
1A
1j
08$
07$
1&$
1k
0l
0b#
1%!
0'!
0m"
1m
1Q#
0a#
19$
1R#
0T#
1n
0X
0U#
1S#
0V
01
1V#
#8800
0!
0A
0j
#8900
1!
1A
1j
18$
0%!
1&!
#9000
0!
0A
0j
#9100
1!
1A
1j
08$
17$
1%!
#9200
0!
0A
0j
#9300
1!
1A
1j
18$
0%!
0&!
1'!
1m"
09$
#9400
0!
0A
0j
#9500
1!
1A
1j
08$
07$
1%$
1$$
1#$
0&$
0k
1l
1b#
1U#
1*!
0[!
0{"
0Y#
0e#
0R#
1T#
1d#
0m
0Q#
1Y!
1y"
1W#
1c#
1%!
0'!
0m"
0X#
0z"
0Z!
1R#
0n
0U#
0*!
0S#
1Z#
1(!
1|"
1\!
1[#
0+!
0V#
1m
1a#
19$
1n
1,!
1I!
1)!
0G!
1\#
0[#
1+!
1V#
1S#
1[!
1{"
1Y#
1Y
1Z
0[
1X
0Z#
0(!
0|"
0\!
0,!
0I!
0\#
0H!
0J!
1-!
1U
1T
0S
1V
11
10
1/
0.
1F!
0K!
1J!
0-!
0)!
1G!
1H!
0F!
1K!
#9600
0!
0A
0j
#9700
1!
1A
1j
18$
0%!
1&!
#9800
0!
0A
0j
#9900
1!
1A
1j
08$
17$
1%!
#10000
0!
0A
0j
#10100
1!
1A
1j
18$
0%!
0&!
1'!
1m"
09$
#10200
0!
0A
0j
#10300
1!
1A
1j
08$
07$
1&$
1k
0l
0Y!
0y"
0W#
0b#
1%!
0'!
0m"
1X#
1z"
1Z!
0m
0a#
19$
0n
0[!
0{"
0Y#
0X
1Z#
1(!
1|"
1\!
0V
01
1)!
0G!
0H!
#10400
0!
0A
0j
#10500
1!
1A
1j
18$
0%!
1&!
#10600
0!
0A
0j
#10700
1!
1A
1j
08$
17$
1%!
#10800
0!
0A
0j
#10900
1!
1A
1j
18$
0%!
0&!
1'!
1m"
09$
#11000
0!
0A
0j
#11100
1!
1A
1j
08$
07$
0%$
0&$
0k
1l
1b#
1m
1Q#
0c#
1%!
0'!
0m"
0R#
1n
0m
0Q#
1a#
19$
1R#
0n
0S#
0Y
1X
1S#
0U
1V
11
00
#11200
0!
0A
0j
#11300
1!
1A
1j
18$
0%!
1&!
#11400
0!
0A
0j
#11500
1!
1A
1j
08$
17$
1%!
#11600
0!
0A
0j
#11700
1!
1A
1j
18$
0%!
0&!
1'!
1m"
09$
#11800
0!
0A
0j
#11900
1!
1A
1j
08$
07$
1&$
1k
0l
0b#
1%!
0'!
0m"
1m
1Q#
0a#
19$
0R#
1n
0X
0S#
0V
01
#12000
0!
0A
0j
#12100
1!
1A
1j
18$
0%!
1&!
#12200
0!
0A
0j
#12300
1!
1A
1j
08$
17$
1%!
#12400
0!
0A
0j
#12500
1!
1A
1j
18$
0%!
0&!
1'!
1m"
09$
#12600
0!
0A
0j
