1º ano/LSD/aula5/parte3/simulation/qsim/TimerN_Demo.msim.vcd
$comment
	File created using the following command:
		vcd file TimerN_Demo.msim.vcd -direction
$end
$date
	Tue Mar 20 09:48:37 2018
$end
$version
	ModelSim Version 10.5b
$end
$timescale
	1ps
$end

$scope module timern_vhd_vec_tst $end
$var wire 1 ! clk $end
$var wire 1 " enable $end
$var wire 1 # reset $end
$var wire 1 $ start $end
$var wire 1 % timerOut $end

$scope module i1 $end
$var wire 1 & gnd $end
$var wire 1 ' vcc $end
$var wire 1 ( unknown $end
$var wire 1 ) devoe $end
$var wire 1 * devclrn $end
$var wire 1 + devpor $end
$var wire 1 , ww_devoe $end
$var wire 1 - ww_devclrn $end
$var wire 1 . ww_devpor $end
$var wire 1 / ww_clk $end
$var wire 1 0 ww_start $end
$var wire 1 1 ww_reset $end
$var wire 1 2 ww_enable $end
$var wire 1 3 ww_timerOut $end
$var wire 1 4 \timerOut~output_o\ $end
$var wire 1 5 \clk~input_o\ $end
$var wire 1 6 \enable~input_o\ $end
$var wire 1 7 \s_count[0]~32_combout\ $end
$var wire 1 8 \start~input_o\ $end
$var wire 1 9 \s_count[1]~35\ $end
$var wire 1 : \s_count[2]~38_combout\ $end
$var wire 1 ; \reset~input_o\ $end
$var wire 1 < \s_count[0]~37_combout\ $end
$var wire 1 = \Equal0~10_combout\ $end
$var wire 1 > \s_count[0]~36_combout\ $end
$var wire 1 ? \s_count[0]~33\ $end
$var wire 1 @ \s_count[1]~34_combout\ $end
$var wire 1 A \s_count[2]~39\ $end
$var wire 1 B \s_count[3]~40_combout\ $end
$var wire 1 C \s_count[3]~41\ $end
$var wire 1 D \s_count[4]~42_combout\ $end
$var wire 1 E \s_count[4]~43\ $end
$var wire 1 F \s_count[5]~44_combout\ $end
$var wire 1 G \Equal0~0_combout\ $end
$var wire 1 H \s_count[5]~45\ $end
$var wire 1 I \s_count[6]~46_combout\ $end
$var wire 1 J \s_count[6]~47\ $end
$var wire 1 K \s_count[7]~48_combout\ $end
$var wire 1 L \s_count[7]~49\ $end
$var wire 1 M \s_count[8]~50_combout\ $end
$var wire 1 N \s_count[8]~51\ $end
$var wire 1 O \s_count[9]~52_combout\ $end
$var wire 1 P \Equal0~1_combout\ $end
$var wire 1 Q \s_count[9]~53\ $end
$var wire 1 R \s_count[10]~54_combout\ $end
$var wire 1 S \s_count[10]~55\ $end
$var wire 1 T \s_count[11]~56_combout\ $end
$var wire 1 U \s_count[11]~57\ $end
$var wire 1 V \s_count[12]~58_combout\ $end
$var wire 1 W \s_count[12]~59\ $end
$var wire 1 X \s_count[13]~60_combout\ $end
$var wire 1 Y \Equal0~2_combout\ $end
$var wire 1 Z \s_count[13]~61\ $end
$var wire 1 [ \s_count[14]~62_combout\ $end
$var wire 1 \ \s_count[14]~63\ $end
$var wire 1 ] \s_count[15]~64_combout\ $end
$var wire 1 ^ \s_count[15]~65\ $end
$var wire 1 _ \s_count[16]~66_combout\ $end
$var wire 1 ` \s_count[16]~67\ $end
$var wire 1 a \s_count[17]~68_combout\ $end
$var wire 1 b \Equal0~3_combout\ $end
$var wire 1 c \Equal0~4_combout\ $end
$var wire 1 d \s_count[17]~69\ $end
$var wire 1 e \s_count[18]~70_combout\ $end
$var wire 1 f \s_count[18]~71\ $end
$var wire 1 g \s_count[19]~72_combout\ $end
$var wire 1 h \s_count[19]~73\ $end
$var wire 1 i \s_count[20]~74_combout\ $end
$var wire 1 j \s_count[20]~75\ $end
$var wire 1 k \s_count[21]~76_combout\ $end
$var wire 1 l \Equal0~5_combout\ $end
$var wire 1 m \s_count[21]~77\ $end
$var wire 1 n \s_count[22]~78_combout\ $end
$var wire 1 o \s_count[22]~79\ $end
$var wire 1 p \s_count[23]~80_combout\ $end
$var wire 1 q \s_count[23]~81\ $end
$var wire 1 r \s_count[24]~82_combout\ $end
$var wire 1 s \s_count[24]~83\ $end
$var wire 1 t \s_count[25]~84_combout\ $end
$var wire 1 u \Equal0~6_combout\ $end
$var wire 1 v \s_count[25]~85\ $end
$var wire 1 w \s_count[26]~86_combout\ $end
$var wire 1 x \s_count[26]~87\ $end
$var wire 1 y \s_count[27]~88_combout\ $end
$var wire 1 z \s_count[27]~89\ $end
$var wire 1 { \s_count[28]~90_combout\ $end
$var wire 1 | \s_count[28]~91\ $end
$var wire 1 } \s_count[29]~92_combout\ $end
$var wire 1 ~ \Equal0~7_combout\ $end
$var wire 1 !! \s_count[29]~93\ $end
$var wire 1 "! \s_count[30]~94_combout\ $end
$var wire 1 #! \s_count[30]~95\ $end
$var wire 1 $! \s_count[31]~96_combout\ $end
$var wire 1 %! \Equal0~8_combout\ $end
$var wire 1 &! \Equal0~9_combout\ $end
$var wire 1 '! \Equal1~0_combout\ $end
$var wire 1 (! \timerOut~0_combout\ $end
$var wire 1 )! \timerOut~reg0_q\ $end
$var wire 1 *! s_count [31] $end
$var wire 1 +! s_count [30] $end
$var wire 1 ,! s_count [29] $end
$var wire 1 -! s_count [28] $end
$var wire 1 .! s_count [27] $end
$var wire 1 /! s_count [26] $end
$var wire 1 0! s_count [25] $end
$var wire 1 1! s_count [24] $end
$var wire 1 2! s_count [23] $end
$var wire 1 3! s_count [22] $end
$var wire 1 4! s_count [21] $end
$var wire 1 5! s_count [20] $end
$var wire 1 6! s_count [19] $end
$var wire 1 7! s_count [18] $end
$var wire 1 8! s_count [17] $end
$var wire 1 9! s_count [16] $end
$var wire 1 :! s_count [15] $end
$var wire 1 ;! s_count [14] $end
$var wire 1 <! s_count [13] $end
$var wire 1 =! s_count [12] $end
$var wire 1 >! s_count [11] $end
$var wire 1 ?! s_count [10] $end
$var wire 1 @! s_count [9] $end
$var wire 1 A! s_count [8] $end
$var wire 1 B! s_count [7] $end
$var wire 1 C! s_count [6] $end
$var wire 1 D! s_count [5] $end
$var wire 1 E! s_count [4] $end
$var wire 1 F! s_count [3] $end
$var wire 1 G! s_count [2] $end
$var wire 1 H! s_count [1] $end
$var wire 1 I! s_count [0] $end
$upscope $end
$upscope $end
$enddefinitions $end
#0
$dumpvars
0!
0"
1#
0$
0%
0&
1'
x(
1)
1*
1+
1,
1-
1.
0/
00
11
02
03
04
05
06
17
08
19
0:
1;
1<
1=
1>
0?
0@
0A
0B
1C
0D
0E
0F
1G
1H
0I
0J
0K
1L
0M
0N
0O
1P
1Q
0R
0S
0T
1U
0V
0W
0X
1Y
1Z
0[
0\
0]
1^
0_
0`
0a
1b
1c
1d
0e
0f
0g
1h
0i
0j
0k
1l
1m
0n
0o
0p
1q
0r
0s
0t
1u
1v
0w
0x
0y
1z
0{
0|
0}
1~
1!!
0"!
0#!
0$!
1%!
1&!
0'!
0(!
0)!
0*!
0+!
0,!
0-!
0.!
0/!
00!
01!
02!
03!
04!
05!
06!
07!
08!
09!
0:!
0;!
0<!
0=!
0>!
0?!
0@!
0A!
0B!
0C!
0D!
0E!
0F!
0G!
0H!
0I!
$end
#20000
1!
1/
15
#40000
0!
0/
05
#60000
1!
1/
15
#80000
0!
0/
05
#100000
1!
1/
15
#120000
0!
1"
0#
0/
12
01
0;
16
05
0<
1(!
#140000
1!
1$
1/
10
18
15
1)!
1<
0>
14
13
1%
#160000
0!
0/
05
#180000
1!
1/
15
1I!
07
1?
0=
1@
#200000
0!
0$
0/
00
08
05
#220000
1!
1/
15
0I!
1H!
0@
09
0G
17
0?
1=
0<
1>
1@
19
0c
1:
0&!
0:
0=
1<
0>
#240000
0!
0/
05
#260000
1!
1/
15
1I!
07
1?
0@
09
1:
#280000
0!
0/
05
#300000
1!
1/
15
1G!
0I!
0H!
1@
19
1G
17
0?
0:
1A
1B
0@
1c
1:
0A
0B
1&!
#320000
0!
0/
05
#340000
1!
1/
15
1I!
07
1?
1'!
1>
0(!
1@
#360000
0!
0/
05
#380000
1!
1/
15
0G!
0I!
0)!
17
0?
0:
1=
0'!
1(!
0<
0@
04
03
0%
#400000
0!
0/
05
#420000
1!
1/
15
1)!
14
13
1%
#440000
0!
0/
05
#460000
1!
1/
15
#480000
0!
1$
0/
10
18
05
1<
0>
#500000
1!
1/
15
1I!
07
1?
0=
1@
#520000
0!
0/
05
#540000
1!
0$
1/
00
08
15
0I!
1H!
0@
09
0G
17
0?
1=
0<
1>
1@
19
0c
1:
0&!
0:
0=
1<
0>
#560000
0!
0"
0/
02
06
05
0<
#580000
1!
1/
15
#600000
0!
0/
05
#620000
1!
1/
15
#640000
0!
0/
05
#660000
1!
1/
15
#680000
0!
0/
05
#700000
1!
1/
15
#720000
0!
1"
0/
12
16
05
1<
#740000
1!
1/
15
1I!
07
1?
0@
09
1:
#760000
0!
0/
05
#780000
1!
1$
1/
10
18
15
1G!
0I!
0H!
1@
19
1G
17
0?
0:
1A
1B
0@
1c
1:
0A
0B
1&!
#800000
0!
0/
05
#820000
1!
1/
15
1I!
07
1?
1'!
1>
0(!
1@
#840000
0!
0/
05
#860000
1!
0$
1/
00
08
15
0G!
0I!
0)!
17
0?
0:
1=
0'!
1(!
0<
0@
04
03
0%
#880000
0!
0/
05
#900000
1!
1/
15
1)!
14
13
1%
#920000
0!
0/
05
#940000
1!
1/
15
#960000
0!
0/
05
#980000
1!
1/
15
