1º ano/isd/quartus/guiao4/parte2/simulation/qsim/EqCmpDemo.msim.vcd
$comment
	File created using the following command:
		vcd file EqCmpDemo.msim.vcd -direction
$end
$date
	Tue Oct 23 16:17:12 2018
$end
$version
	ModelSim Version 10.5b
$end
$timescale
	1ps
$end

$scope module EqCmp16Demo_vlg_vec_tst $end
$var reg 16 ! inPort0 [15:0] $end
$var reg 16 " inPort1 [15:0] $end
$var wire 1 # pin_name9 $end

$scope module i1 $end
$var wire 1 $ gnd $end
$var wire 1 % vcc $end
$var wire 1 & unknown $end
$var tri1 1 ' devclrn $end
$var tri1 1 ( devpor $end
$var tri1 1 ) devoe $end
$var wire 1 * pin_name9~output_o $end
$var wire 1 + inPort0[0]~input_o $end
$var wire 1 , inPort0[1]~input_o $end
$var wire 1 - inPort1[1]~input_o $end
$var wire 1 . inPort1[0]~input_o $end
$var wire 1 / inst4~0_combout $end
$var wire 1 0 inPort0[2]~input_o $end
$var wire 1 1 inPort0[3]~input_o $end
$var wire 1 2 inPort1[3]~input_o $end
$var wire 1 3 inPort1[2]~input_o $end
$var wire 1 4 inst4~1_combout $end
$var wire 1 5 inPort0[4]~input_o $end
$var wire 1 6 inPort0[5]~input_o $end
$var wire 1 7 inPort1[5]~input_o $end
$var wire 1 8 inPort1[4]~input_o $end
$var wire 1 9 inst4~2_combout $end
$var wire 1 : inPort0[6]~input_o $end
$var wire 1 ; inPort0[7]~input_o $end
$var wire 1 < inPort1[7]~input_o $end
$var wire 1 = inPort1[6]~input_o $end
$var wire 1 > inst4~3_combout $end
$var wire 1 ? inst4~4_combout $end
$var wire 1 @ inPort0[8]~input_o $end
$var wire 1 A inPort0[9]~input_o $end
$var wire 1 B inPort1[9]~input_o $end
$var wire 1 C inPort1[8]~input_o $end
$var wire 1 D inst4~5_combout $end
$var wire 1 E inPort0[11]~input_o $end
$var wire 1 F inPort1[11]~input_o $end
$var wire 1 G inPort0[10]~input_o $end
$var wire 1 H inPort1[10]~input_o $end
$var wire 1 I inst2|inst1~combout $end
$var wire 1 J inst4~6_combout $end
$var wire 1 K inPort0[12]~input_o $end
$var wire 1 L inPort0[13]~input_o $end
$var wire 1 M inPort1[13]~input_o $end
$var wire 1 N inPort1[12]~input_o $end
$var wire 1 O inst4~7_combout $end
$var wire 1 P inPort0[14]~input_o $end
$var wire 1 Q inPort0[15]~input_o $end
$var wire 1 R inPort1[15]~input_o $end
$var wire 1 S inPort1[14]~input_o $end
$var wire 1 T inst4~8_combout $end
$var wire 1 U inst4~combout $end
$upscope $end
$upscope $end
$enddefinitions $end
#0
$dumpvars
b1000100000100111 !
b11111100101111 "
0#
0$
1%
x&
1'
1(
1)
0*
1+
1,
1-
1.
1/
10
01
12
13
04
05
16
17
08
19
0:
0;
0<
0=
1>
0?
0@
0A
1B
1C
0D
1E
1F
0G
1H
1I
0J
0K
0L
1M
1N
0O
0P
1Q
0R
0S
0T
0U
$end
#50000
b1100100000100111 !
b1110100000100111 !
b1111100000100111 !
b1111000000100111 !
b1111010000100111 !
b1111010010100111 !
b1111010010101111 !
b1111010010101101 !
b1111010010101100 !
b1111100101111 "
b1110100101111 "
b1110000101111 "
b1110010101111 "
b1110011101111 "
b1110011111111 "
b1110011111110 "
0.
18
1=
1<
0C
0B
0M
0+
0,
11
1;
1G
0E
1K
1L
1P
0/
09
0>
1D
14
0I
#100000
b111010010101100 !
b111011010101100 !
b111011110101100 !
b1001110011111110 "
b1101110011111110 "
b1101100011111110 "
b1101100011011110 "
b1101100011011010 "
b1101100011011000 "
b11011110101100 !
b1011110101100 !
b1001110101100 !
b1001110100100 !
b1001110100110 !
b1111100011011000 "
b1111101011011000 "
b1111101001011000 "
b1111101000011000 "
b1111101000011001 "
1.
0-
03
07
0=
0<
1B
0H
1M
1S
1R
1,
01
1@
1A
0G
0L
0P
0Q
04
0D
#150000
b1001110000110 !
b1001110010110 !
b1001110010010 !
b1110101000011001 "
b1110001000011001 "
b1110001000010001 "
b1110010010 !
b101110010010 !
b101110010011 !
b1000101110010011 !
b1010001000010001 "
b1010001000010101 "
b1100101110010011 !
b1110101110010011 !
b1110111110010011 !
b1110111110011011 !
b1010000000010101 "
b1010000000010100 "
0.
13
02
0B
0F
0N
0S
1+
00
11
15
06
1G
1E
0K
1L
1P
1Q
1O
19
1I
#200000
b1110111111011011 !
b1110111101011011 !
b1010000100010100 "
b1110111001011011 !
b1010010100010100 "
b1010010100010110 "
b1110111001011001 !
b1000010100010110 "
b1000010110010110 "
b1000010111010110 "
b1110111001001001 !
b1000010111011110 "
b1111111001001001 !
b1111111001001000 !
b111111001001000 !
b1100010111011110 "
b1100010111011010 "
b101111001001000 !
b101101001001000 !
1-
03
12
1=
1<
1C
1H
0M
1S
0+
0,
05
1:
0;
0@
0G
1K
0L
0Q
14
0O
09
#250000
b101100001001000 !
b101100001101000 !
b101100001101100 !
b1101010111011010 "
b1101110111011010 "
b1100001101100 !
b1100001100100 !
b1100000100100 !
b1101110111011000 "
b1100000100110 !
b1100000110110 !
b1101110111010000 "
b100000110110 !
b100000110111 !
b1000100000110111 !
b1010100000110111 !
0-
02
1F
1N
1+
1,
10
01
15
16
0:
0A
0K
1L
0P
1Q
04
#300000
b101110111010000 "
b101111111010000 "
b101111111010001 "
b1010100010110111 !
b101101111010001 "
b111101111010001 "
b111101111010101 "
b1010101010110111 !
b1010101010110011 !
b1110101010110011 !
b111101111010111 "
b1110101010110001 !
b1111101010110001 !
b1101101010110001 !
0,
00
1;
1A
1K
0L
1P
1.
1-
13
1B
0H
1M
0R
0I
#350000
b111101111110111 "
b1101001010110001 !
b111101011110111 "
b111101001110111 "
b111101000110111 "
b1101011010110001 !
b111101000111111 "
b1101011010110000 !
b101011010110000 !
b1111101000111111 "
b1111101000111110 "
b101011000110000 !
0+
0;
1G
0E
0Q
0.
12
17
0=
0<
0C
1R
1>
1I
19
1D
#400000
b1111001000111110 "
b101011000111000 !
b101011001111000 !
b1011001111000 !
b1011001111010 !
b11001111010 !
b10011001111010 !
b1111001001111110 "
b111001001111110 "
1,
11
1:
0K
1L
0P
1=
0F
0R
1/
#450000
b111001001101110 "
b10011101111010 !
b11001001101110 "
b10011101011010 !
b10001001101110 "
b10000001101110 "
b10010001101110 "
b10001101110 "
b10010101011010 !
b10010101011110 !
b10011101110 "
b10010101011111 !
b1010010101011111 !
b10011101111 "
b110011101111 "
b1010010101010111 !
b1000010101010111 !
1+
10
01
06
1@
0A
0L
1Q
1.
08
1<
0B
1H
1F
0N
0M
0S
09
0D
1O
0>
0I
#500000
b1000010101000111 !
b110011101011 "
b110011101001 "
b1000110101000111 !
b110111101001 "
b110111100001 "
b1000110111000111 !
b1000110110000111 !
b1100110110000111 !
b1100110110000101 !
b110111110001 "
b1100110010000101 !
b110111110000 "
b10111110000 "
b1110110010000101 !
0.
0-
03
02
18
1C
0F
0,
05
0:
1;
0@
1E
1L
1P
0/
0O
#550000
b10111010000 "
b1111110010000101 !
b100010111010000 "
b1111110010100101 !
b101010111010000 "
b101011111010000 "
b101001111010000 "
b111110010100101 !
b111110010101101 !
b101001111010010 "
b111010010101101 !
b101001011010010 "
b101001011011010 "
b111010000101101 !
b11010000101101 !
b11010000101111 !
b11010100101111 !
b1010100101111 !
1,
11
16
0;
1@
0E
1K
0L
0P
0Q
1-
12
07
0C
1B
0H
1N
1S
1O
1I
#600000
b101001010011010 "
b1101001010011010 "
b1011100101111 !
b1011100101011 !
b1011100111011 !
b1101001010001010 "
b1101001010101010 "
b1101000010101010 "
b1101010010101010 "
b1011100110011 !
b1101010010101000 "
b1101010010100000 "
b1011100110001 !
0,
00
01
15
1A
0-
02
08
17
0=
0B
1H
1R
14
0I
#650000
b1111010010100000 "
b1111010010100100 "
b1011101110001 !
b1111010010100101 "
b1111110010100101 "
b11101110001 !
b1011110010100101 "
b111101110001 !
b111111110001 !
b100111111110001 !
b100111011110001 !
b110111011110001 !
b11110010100101 "
b11100010100101 "
b110111011111001 !
b11100010100111 "
b110111011111011 !
1,
11
1:
1;
0@
1E
0K
1L
1P
1.
1-
13
0H
1F
1M
0S
0R
1/
04
0O
1I
#700000
b110101011111011 !
b110101011011011 !
b1110101011011011 !
b11100110100111 "
b11100111100111 "
b1110100011011011 !
b1110100011011111 !
b11100111000111 "
b1100111000111 "
b1100111000011 "
b1110100010011111 !
b1100111000010 "
b1111100010011111 !
b101100111000010 "
b1111100000011111 !
b1011100000011111 !
b1101100111000010 "
b1011100000010111 !
b1101100111000000 "
b1011100000010101 !
0.
0-
03
07
1=
1C
0M
1S
1R
0,
10
01
06
0:
0;
0A
0G
1K
0P
1Q
0/
0I
#750000
b1011100000000101 !
b1101100111010000 "
b1101101111010000 "
b1011000000000101 !
b1001000000000101 !
b1101111111010000 "
b1000000000101 !
b1101111110010000 "
b1001000000101 !
b1101111110110000 "
b1001001000101 !
b1101111110110001 "
b1001111110110001 "
b1001011000101 !
b1001011001101 !
b1001111110110011 "
b1001011001111 !
1.
1-
18
17
0=
1B
1H
0S
1,
11
05
1:
1;
1A
0E
0L
0Q
1/
1I
1O
#800000
b1001011001110 !
b1000111110110011 "
b1011011001110 !
b1000111010110011 "
b1010111010110011 "
b10111010110011 "
b1011011011110 !
b10111010100011 "
b1111011011110 !
b10101010100011 "
b1001111011011110 !
b10101010000011 "
b1001111010011110 !
b10101010000010 "
0.
08
07
0C
0H
0N
1M
0R
0+
15
0:
1G
1E
1Q
1D
0O
1>
#850000
b10101010001010 "
b1001111010011010 !
b1000111010011010 !
b10100010001010 "
b1000110010011010 !
b1000110010011011 !
b11100010001010 "
b1011100010001010 "
b1011100010011010 "
b1000010010011011 !
b1011100010111010 "
b1011100010111011 "
1+
00
0A
0E
0K
1.
12
18
17
0B
1N
1R
14
1T
#900000
b1011100000111011 "
b1000010110011011 !
b1011100000111111 "
b1100010110011011 !
b1100010100011011 !
b1100010100010011 !
b1100010100010001 !
b1100000100010001 !
b1100000100000001 !
b1011110000111111 "
b100000100000001 !
b100000101000001 !
b100000101000101 !
b1011111000111111 "
b100000101000100 !
b11111000111111 "
b100100101000100 !
b11111000011111 "
0+
0,
10
01
05
1:
0;
1@
0G
1E
1P
0Q
13
07
0<
1B
1H
0R
0/
04
0>
0D
0T
#950000
b11011000011111 "
b11011001011111 "
b111011001011111 "
b111011001011101 "
b111011101011101 "
b111011101001101 "
b100100001000100 !
b100100001000110 !
b100100001010110 !
b100100000010110 !
b100100000010111 !
b1111011101001101 "
1+
1,
15
0:
0@
0-
08
1=
1C
0F
1S
1R
