1º ano/LSD/Aula1/Parte2/simulation/qsim/VHDLDemo.msim.vcd
$comment
	File created using the following command:
		vcd file VHDLDemo.msim.vcd -direction
$end
$date
	Tue Feb 20 11:07:07 2018
$end
$version
	ModelSim Version 10.4b
$end
$timescale
	1ps
$end

$scope module AND2Gate_vlg_vec_tst $end
$var reg 1 ! inPort0 $end
$var reg 1 " inPort1 $end
$var wire 1 # outPort $end

$scope module i1 $end
$var wire 1 $ gnd $end
$var wire 1 % vcc $end
$var wire 1 & unknown $end
$var tri1 1 ' devclrn $end
$var tri1 1 ( devpor $end
$var tri1 1 ) devoe $end
$var wire 1 * outPort~output_o $end
$var wire 1 + inPort0~input_o $end
$var wire 1 , inPort1~input_o $end
$var wire 1 - outPort~0_combout $end
$upscope $end
$upscope $end
$enddefinitions $end
#0
$dumpvars
0!
0"
0#
0$
1%
x&
1'
1(
1)
0*
0+
0,
0-
$end
#20000
1!
1+
#220000
0!
0+
#240000
1"
1,
#360000
0"
0,
#380000
1!
1+
#460000
1"
1,
1-
1*
1#
#620000
0"
0,
0-
0*
0#
#640000
0!
0+
#720000
1"
1,
#780000
1!
1+
1-
1*
1#
#920000
0!
0+
0-
0*
0#
#980000
0"
0,
