1º ano/LSD/Mini_projeto/Fase1/simulation/qsim/Mini_projecto_fase1.msim.vcd
$comment
	File created using the following command:
		vcd file Mini_projecto_fase1.msim.vcd -direction
$end
$date
	Mon Apr 09 14:34:54 2018
$end
$version
	ModelSim Version 10.5b
$end
$timescale
	1ps
$end

$scope module timercounter_vhd_vec_tst $end
$var wire 1 ! clk $end
$var wire 1 " countOut [15] $end
$var wire 1 # countOut [14] $end
$var wire 1 $ countOut [13] $end
$var wire 1 % countOut [12] $end
$var wire 1 & countOut [11] $end
$var wire 1 ' countOut [10] $end
$var wire 1 ( countOut [9] $end
$var wire 1 ) countOut [8] $end
$var wire 1 * countOut [7] $end
$var wire 1 + countOut [6] $end
$var wire 1 , countOut [5] $end
$var wire 1 - countOut [4] $end
$var wire 1 . countOut [3] $end
$var wire 1 / countOut [2] $end
$var wire 1 0 countOut [1] $end
$var wire 1 1 countOut [0] $end
$var wire 1 2 disp1 [3] $end
$var wire 1 3 disp1 [2] $end
$var wire 1 4 disp1 [1] $end
$var wire 1 5 disp1 [0] $end
$var wire 1 6 disp2 [3] $end
$var wire 1 7 disp2 [2] $end
$var wire 1 8 disp2 [1] $end
$var wire 1 9 disp2 [0] $end
$var wire 1 : disp3 [3] $end
$var wire 1 ; disp3 [2] $end
$var wire 1 < disp3 [1] $end
$var wire 1 = disp3 [0] $end
$var wire 1 > disp4 [3] $end
$var wire 1 ? disp4 [2] $end
$var wire 1 @ disp4 [1] $end
$var wire 1 A disp4 [0] $end
$var wire 1 B enable $end
$var wire 1 C reset $end
$var wire 1 D start $end
$var wire 1 E termCount $end

$scope module i1 $end
$var wire 1 F gnd $end
$var wire 1 G vcc $end
$var wire 1 H unknown $end
$var wire 1 I devoe $end
$var wire 1 J devclrn $end
$var wire 1 K devpor $end
$var wire 1 L ww_devoe $end
$var wire 1 M ww_devclrn $end
$var wire 1 N ww_devpor $end
$var wire 1 O ww_clk $end
$var wire 1 P ww_enable $end
$var wire 1 Q ww_reset $end
$var wire 1 R ww_start $end
$var wire 1 S ww_countOut [15] $end
$var wire 1 T ww_countOut [14] $end
$var wire 1 U ww_countOut [13] $end
$var wire 1 V ww_countOut [12] $end
$var wire 1 W ww_countOut [11] $end
$var wire 1 X ww_countOut [10] $end
$var wire 1 Y ww_countOut [9] $end
$var wire 1 Z ww_countOut [8] $end
$var wire 1 [ ww_countOut [7] $end
$var wire 1 \ ww_countOut [6] $end
$var wire 1 ] ww_countOut [5] $end
$var wire 1 ^ ww_countOut [4] $end
$var wire 1 _ ww_countOut [3] $end
$var wire 1 ` ww_countOut [2] $end
$var wire 1 a ww_countOut [1] $end
$var wire 1 b ww_countOut [0] $end
$var wire 1 c ww_disp1 [3] $end
$var wire 1 d ww_disp1 [2] $end
$var wire 1 e ww_disp1 [1] $end
$var wire 1 f ww_disp1 [0] $end
$var wire 1 g ww_disp2 [3] $end
$var wire 1 h ww_disp2 [2] $end
$var wire 1 i ww_disp2 [1] $end
$var wire 1 j ww_disp2 [0] $end
$var wire 1 k ww_disp3 [3] $end
$var wire 1 l ww_disp3 [2] $end
$var wire 1 m ww_disp3 [1] $end
$var wire 1 n ww_disp3 [0] $end
$var wire 1 o ww_disp4 [3] $end
$var wire 1 p ww_disp4 [2] $end
$var wire 1 q ww_disp4 [1] $end
$var wire 1 r ww_disp4 [0] $end
$var wire 1 s ww_termCount $end
$var wire 1 t \countOut[0]~output_o\ $end
$var wire 1 u \countOut[1]~output_o\ $end
$var wire 1 v \countOut[2]~output_o\ $end
$var wire 1 w \countOut[3]~output_o\ $end
$var wire 1 x \countOut[4]~output_o\ $end
$var wire 1 y \countOut[5]~output_o\ $end
$var wire 1 z \countOut[6]~output_o\ $end
$var wire 1 { \countOut[7]~output_o\ $end
$var wire 1 | \countOut[8]~output_o\ $end
$var wire 1 } \countOut[9]~output_o\ $end
$var wire 1 ~ \countOut[10]~output_o\ $end
$var wire 1 !! \countOut[11]~output_o\ $end
$var wire 1 "! \countOut[12]~output_o\ $end
$var wire 1 #! \countOut[13]~output_o\ $end
$var wire 1 $! \countOut[14]~output_o\ $end
$var wire 1 %! \countOut[15]~output_o\ $end
$var wire 1 &! \disp1[0]~output_o\ $end
$var wire 1 '! \disp1[1]~output_o\ $end
$var wire 1 (! \disp1[2]~output_o\ $end
$var wire 1 )! \disp1[3]~output_o\ $end
$var wire 1 *! \disp2[0]~output_o\ $end
$var wire 1 +! \disp2[1]~output_o\ $end
$var wire 1 ,! \disp2[2]~output_o\ $end
$var wire 1 -! \disp2[3]~output_o\ $end
$var wire 1 .! \disp3[0]~output_o\ $end
$var wire 1 /! \disp3[1]~output_o\ $end
$var wire 1 0! \disp3[2]~output_o\ $end
$var wire 1 1! \disp3[3]~output_o\ $end
$var wire 1 2! \disp4[0]~output_o\ $end
$var wire 1 3! \disp4[1]~output_o\ $end
$var wire 1 4! \disp4[2]~output_o\ $end
$var wire 1 5! \disp4[3]~output_o\ $end
$var wire 1 6! \termCount~output_o\ $end
$var wire 1 7! \clk~input_o\ $end
$var wire 1 8! \s_count[0]~16_combout\ $end
$var wire 1 9! \reset~input_o\ $end
$var wire 1 :! \s_reset~q\ $end
$var wire 1 ;! \enable~input_o\ $end
$var wire 1 <! \s_count[0]~17\ $end
$var wire 1 =! \s_count[1]~20\ $end
$var wire 1 >! \s_count[2]~21_combout\ $end
$var wire 1 ?! \s_count[2]~22\ $end
$var wire 1 @! \s_count[3]~23_combout\ $end
$var wire 1 A! \s_count[3]~24\ $end
$var wire 1 B! \s_count[4]~25_combout\ $end
$var wire 1 C! \s_count[4]~26\ $end
$var wire 1 D! \s_count[5]~28\ $end
$var wire 1 E! \s_count[6]~29_combout\ $end
$var wire 1 F! \s_count[6]~30\ $end
$var wire 1 G! \s_count[7]~31_combout\ $end
$var wire 1 H! \s_count[7]~32\ $end
$var wire 1 I! \s_count[8]~33_combout\ $end
$var wire 1 J! \s_count[8]~34\ $end
$var wire 1 K! \s_count[9]~35_combout\ $end
$var wire 1 L! \process_0~0_combout\ $end
$var wire 1 M! \process_0~1_combout\ $end
$var wire 1 N! \s_count[9]~36\ $end
$var wire 1 O! \s_count[10]~37_combout\ $end
$var wire 1 P! \s_count[10]~38\ $end
$var wire 1 Q! \s_count[11]~39_combout\ $end
$var wire 1 R! \s_count[11]~40\ $end
$var wire 1 S! \s_count[12]~41_combout\ $end
$var wire 1 T! \s_count[12]~42\ $end
$var wire 1 U! \s_count[13]~43_combout\ $end
$var wire 1 V! \s_count[13]~44\ $end
$var wire 1 W! \s_count[14]~45_combout\ $end
$var wire 1 X! \s_count[14]~46\ $end
$var wire 1 Y! \s_count[15]~47_combout\ $end
$var wire 1 Z! \Equal2~0_combout\ $end
$var wire 1 [! \Add0~3_combout\ $end
$var wire 1 \! \s_count[5]~27_combout\ $end
$var wire 1 ]! \Add0~1_combout\ $end
$var wire 1 ^! \Add0~2_combout\ $end
$var wire 1 _! \s_count[1]~19_combout\ $end
$var wire 1 `! \Add0~0_combout\ $end
$var wire 1 a! \Equal0~0_combout\ $end
$var wire 1 b! \start~input_o\ $end
$var wire 1 c! \s_start~0_combout\ $end
$var wire 1 d! \s_start~q\ $end
$var wire 1 e! \s_count[0]~18_combout\ $end
$var wire 1 f! \comb~0_combout\ $end
$var wire 1 g! \s_termCount~combout\ $end
$var wire 1 h! s_count [15] $end
$var wire 1 i! s_count [14] $end
$var wire 1 j! s_count [13] $end
$var wire 1 k! s_count [12] $end
$var wire 1 l! s_count [11] $end
$var wire 1 m! s_count [10] $end
$var wire 1 n! s_count [9] $end
$var wire 1 o! s_count [8] $end
$var wire 1 p! s_count [7] $end
$var wire 1 q! s_count [6] $end
$var wire 1 r! s_count [5] $end
$var wire 1 s! s_count [4] $end
$var wire 1 t! s_count [3] $end
$var wire 1 u! s_count [2] $end
$var wire 1 v! s_count [1] $end
$var wire 1 w! s_count [0] $end
$var wire 1 x! \ALT_INV_start~input_o\ $end
$var wire 1 y! \ALT_INV_reset~input_o\ $end
$var wire 1 z! \ALT_INV_s_reset~q\ $end
$var wire 1 {! ALT_INV_s_count [14] $end
$var wire 1 |! ALT_INV_s_count [13] $end
$var wire 1 }! ALT_INV_s_count [12] $end
$var wire 1 ~! ALT_INV_s_count [11] $end
$var wire 1 !" ALT_INV_s_count [10] $end
$var wire 1 "" ALT_INV_s_count [9] $end
$var wire 1 #" ALT_INV_s_count [8] $end
$var wire 1 $" ALT_INV_s_count [7] $end
$var wire 1 %" ALT_INV_s_count [6] $end
$var wire 1 &" ALT_INV_s_count [5] $end
$var wire 1 '" ALT_INV_s_count [4] $end
$var wire 1 (" ALT_INV_s_count [3] $end
$var wire 1 )" ALT_INV_s_count [2] $end
$var wire 1 *" ALT_INV_s_count [1] $end
$var wire 1 +" ALT_INV_s_count [0] $end
$upscope $end
$upscope $end
$enddefinitions $end
#0
$dumpvars
1!
1B
0C
0D
xE
0F
1G
xH
1I
1J
1K
1L
1M
1N
1O
1P
0Q
0R
xs
1t
0u
0v
0w
0x
1y
0z
0{
1|
0}
0~
1!!
0"!
0#!
1$!
0%!
0&!
0'!
1(!
0)!
1*!
0+!
0,!
1-!
0.!
1/!
00!
01!
12!
03!
04!
05!
x6!
17!
18!
09!
0:!
1;!
1<!
0=!
0>!
1?!
0@!
0A!
0B!
1C!
0D!
0E!
1F!
0G!
0H!
0I!
1J!
0K!
0L!
0M!
0N!
0O!
1P!
0Q!
0R!
0S!
1T!
0U!
0V!
0W!
1X!
0Y!
0Z!
1[!
0\!
0]!
1^!
0_!
0`!
0a!
0b!
1c!
0d!
1e!
0f!
xg!
1x!
1y!
1z!
0S
1T
0U
0V
1W
0X
0Y
1Z
0[
0\
1]
0^
0_
0`
0a
1b
0c
1d
0e
0f
1g
0h
0i
1j
0k
0l
1m
0n
0o
0p
0q
1r
0h!
0i!
0j!
0k!
0l!
0m!
0n!
0o!
0p!
0q!
0r!
0s!
0t!
0u!
0v!
0w!
1{!
x|!
x}!
1~!
x!"
x""
1#"
x$"
x%"
1&"
x'"
x("
x)"
x*"
1+"
0"
1#
0$
0%
1&
0'
0(
1)
0*
0+
1,
0-
0.
0/
00
11
02
13
04
05
16
07
08
19
0:
0;
1<
0=
0>
0?
0@
1A
$end
#1000
0!
0O
07!
#2000
1!
1O
17!
1w!
0+"
08!
0<!
1`!
0^!
1_!
1=!
0t
02!
0_!
0?!
0b
0r
1@!
1A!
01
0A
1B!
0C!
1\!
#3000
0!
0O
07!
#4000
1!
1O
17!
1t!
1s!
1r!
0w!
1+"
0&"
18!
1<!
0\!
1D!
0B!
1C!
0@!
0A!
0`!
1^!
1B!
1\!
0D!
1E!
0F!
1_!
1x
1.!
1w
15!
0y
0/!
1t
12!
1G!
1H!
0E!
1F!
0_!
0=!
1>!
1^
1n
1_
1o
0]
0m
1b
1r
1.
1-
1=
1>
0>!
1?!
0G!
0H!
1I!
11
0,
0<
1A
0I!
1@!
#5000
0!
0O
07!
#6000
1!
1O
17!
1w!
0+"
08!
0<!
1_!
1=!
0t
02!
1>!
0?!
0b
0r
0@!
01
0A
#7000
0!
0O
07!
#8000
1!
1O
17!
1u!
0t!
1v!
0w!
1+"
18!
1<!
0_!
0=!
1@!
1A!
0>!
1?!
0@!
0A!
0B!
1>!
1_!
1u
13!
0w
05!
1v
14!
1t
12!
1B!
1a
1q
0_
0o
1`
1p
1b
1r
10
1/
0.
1@
1?
0>
11
1A
#9000
0!
0O
07!
#10000
1!
1O
17!
1w!
0+"
08!
0<!
0_!
0t
02!
0b
0r
01
0A
#11000
0!
0O
07!
#12000
1!
1O
17!
0v!
0w!
1+"
18!
1<!
1_!
1=!
0>!
0_!
0=!
0u
03!
1t
12!
1>!
0a
0q
1b
1r
00
0@
11
1A
#13000
0!
0O
07!
#14000
1!
1O
17!
1w!
0+"
08!
0<!
1_!
1=!
0t
02!
0>!
0b
0r
01
0A
#15000
0!
0O
07!
#16000
1!
1O
17!
0u!
1v!
0w!
1+"
18!
1<!
0_!
0=!
1>!
0?!
1@!
1A!
0>!
1?!
1_!
1u
13!
0v
04!
1t
12!
0@!
0A!
0B!
1a
1q
0`
0p
1b
1r
10
0/
1@
0?
1B!
11
1A
#17000
0!
0O
07!
#18000
1!
1O
17!
1w!
0+"
08!
0<!
0_!
0t
02!
0b
0r
01
0A
#19000
0!
0O
07!
#20000
1!
1C
1O
1Q
19!
17!
0y!
0v!
0w!
1+"
18!
1<!
1_!
1=!
1>!
0?!
0_!
0=!
0u
03!
1t
12!
0>!
1?!
1@!
1A!
0a
0q
1b
1r
00
0@
0B!
0@!
0A!
11
1A
1B!
#21000
0!
0O
07!
#22000
1!
1O
17!
1w!
0+"
08!
0<!
1`!
0^!
1_!
1=!
0t
02!
0_!
0?!
0b
0r
1@!
1A!
01
0A
0B!
#23000
0!
0O
07!
#24000
1!
1O
17!
1t!
0s!
0w!
1+"
18!
1<!
1B!
0C!
1]!
0@!
0A!
0`!
0B!
1C!
1^!
0\!
1D!
1_!
0x
0.!
1w
15!
1t
12!
1E!
0F!
0_!
0=!
1>!
1\!
0D!
0^
0n
1_
1o
1b
1r
1.
0-
0=
1>
0E!
1F!
0>!
1?!
1G!
1H!
11
1A
1I!
1@!
0G!
0H!
0I!
#25000
0!
0O
07!
#26000
1!
1O
17!
1w!
0+"
08!
0<!
1_!
1=!
0t
02!
1>!
0?!
0b
0r
0@!
01
0A
#27000
0!
0O
07!
#28000
1!
1O
17!
1u!
0t!
1v!
0w!
1+"
18!
1<!
0_!
0=!
1@!
1A!
0>!
1?!
0@!
0A!
1B!
0C!
1>!
1_!
1u
13!
0w
05!
1v
14!
1t
12!
0\!
1D!
0B!
1C!
1a
1q
0_
0o
1`
1p
1b
1r
10
1/
0.
1@
1?
0>
1\!
0D!
1E!
0F!
11
1A
1G!
1H!
0E!
1F!
0G!
0H!
1I!
0I!
#29000
0!
0O
07!
#30000
1!
1O
17!
1w!
0+"
08!
0<!
0_!
0t
02!
0b
0r
01
0A
#31000
0!
0O
07!
#32000
1!
1O
17!
0v!
0w!
1+"
18!
1<!
1_!
1=!
0>!
0_!
0=!
0u
03!
1t
12!
1>!
0a
0q
1b
1r
00
0@
11
1A
#33000
0!
0O
07!
#34000
1!
1O
17!
1w!
0+"
08!
0<!
1_!
1=!
0t
02!
0>!
0b
0r
01
0A
#35000
0!
0O
07!
#36000
1!
1O
17!
0u!
1v!
0w!
1+"
18!
1<!
0_!
0=!
1>!
0?!
1@!
1A!
0>!
1?!
1_!
1u
13!
0v
04!
1t
12!
0@!
0A!
1B!
0C!
1a
1q
0`
0p
1b
1r
10
0/
1@
0?
0\!
1D!
0B!
1C!
11
1A
1\!
0D!
1E!
0F!
1G!
1H!
0E!
1F!
0G!
0H!
1I!
0I!
#37000
0!
0O
07!
#38000
1!
1O
17!
1w!
0+"
08!
0<!
0_!
0t
02!
0b
0r
01
0A
#39000
0!
0O
07!
#40000
1!
0C
1O
0Q
09!
17!
1y!
0v!
0w!
1:!
1+"
18!
1<!
1_!
1=!
0z!
1f!
0:!
0r!
1>!
0?!
0_!
0=!
0u
03!
0g!
1&"
1z!
1t
12!
0>!
1?!
1@!
1A!
0\!
0]!
0f!
0a
0q
1b
1r
00
0@
1B!
0C!
0@!
0A!
11
1A
1y
1/!
06!
0B!
1C!
1\!
1]
1m
0s
0\!
1,
1<
0E
#41000
0!
0O
07!
#42000
1!
1O
17!
1w!
0+"
08!
0<!
1`!
0^!
1_!
1=!
0t
02!
0_!
0?!
0b
0r
1@!
1A!
01
0A
1B!
0C!
1\!
#43000
0!
0O
07!
#44000
1!
1O
17!
1t!
1s!
1r!
0w!
1+"
0&"
18!
1<!
0\!
1D!
0B!
1C!
0@!
0A!
0`!
1^!
1B!
1\!
0D!
1E!
0F!
1_!
1x
1.!
1w
15!
0y
0/!
1t
12!
1G!
1H!
0E!
1F!
0_!
0=!
1>!
1^
1n
1_
1o
0]
0m
1b
1r
1.
1-
1=
1>
0>!
1?!
0G!
0H!
1I!
11
0,
0<
1A
0I!
1@!
#45000
0!
0O
07!
#46000
1!
1O
17!
1w!
0+"
08!
0<!
1_!
1=!
0t
02!
1>!
0?!
0b
0r
0@!
01
0A
#47000
0!
0O
07!
#48000
1!
1O
17!
1u!
0t!
1v!
0w!
1+"
18!
1<!
0_!
0=!
1@!
1A!
0>!
1?!
0@!
0A!
0B!
1>!
1_!
1u
13!
0w
05!
1v
14!
1t
12!
1B!
1a
1q
0_
0o
1`
1p
1b
1r
10
1/
0.
1@
1?
0>
11
1A
#49000
0!
0O
07!
#50000
1!
1O
17!
1w!
0+"
08!
0<!
0_!
0t
02!
0b
0r
01
0A
#51000
0!
0O
07!
#52000
1!
1O
17!
0v!
0w!
1+"
18!
1<!
1_!
1=!
0>!
0_!
0=!
0u
03!
1t
12!
1>!
0a
0q
1b
1r
00
0@
11
1A
#53000
0!
0O
07!
#54000
1!
1O
17!
1w!
0+"
08!
0<!
1_!
1=!
0t
02!
0>!
0b
0r
01
0A
#55000
0!
0O
07!
#56000
1!
1O
17!
0u!
1v!
0w!
1+"
18!
1<!
0_!
0=!
1>!
0?!
1@!
1A!
0>!
1?!
1_!
1u
13!
0v
04!
1t
12!
0@!
0A!
0B!
1a
1q
0`
0p
1b
1r
10
0/
1@
0?
1B!
11
1A
#57000
0!
0O
07!
#58000
1!
1O
17!
1w!
0+"
08!
0<!
0_!
0t
02!
0b
0r
01
0A
#59000
0!
0O
07!
#60000
1!
1D
1O
1R
1b!
17!
0x!
0v!
0w!
1+"
18!
1<!
1_!
1=!
1>!
0?!
0_!
0=!
0u
03!
1t
12!
0>!
1?!
1@!
1A!
0a
0q
1b
1r
00
0@
0B!
0@!
0A!
11
1A
1B!
#61000
0!
0O
07!
#62000
1!
1O
17!
1w!
0+"
08!
0<!
1`!
0^!
1_!
1=!
0t
02!
0_!
0?!
0b
0r
1@!
1A!
01
0A
0B!
#63000
0!
0O
07!
#64000
1!
1O
17!
1t!
0s!
0w!
1+"
18!
1<!
1B!
0C!
1]!
0@!
0A!
0`!
0B!
1C!
1^!
0\!
1D!
1_!
0x
0.!
1w
15!
1t
12!
1E!
0F!
0_!
0=!
1>!
1\!
0D!
0^
0n
1_
1o
1b
1r
1.
0-
0=
1>
0E!
1F!
0>!
1?!
1G!
1H!
11
1A
1I!
1@!
0G!
0H!
0I!
#65000
0!
0O
07!
#66000
1!
1O
17!
1w!
0+"
08!
0<!
1_!
1=!
0t
02!
1>!
0?!
0b
0r
0@!
01
0A
#67000
0!
0O
07!
#68000
1!
1O
17!
1u!
0t!
1v!
0w!
1+"
18!
1<!
0_!
0=!
1@!
1A!
0>!
1?!
0@!
0A!
1B!
0C!
1>!
1_!
1u
13!
0w
05!
1v
14!
1t
12!
0\!
1D!
0B!
1C!
1a
1q
0_
0o
1`
1p
1b
1r
10
1/
0.
1@
1?
0>
1\!
0D!
1E!
0F!
11
1A
1G!
1H!
0E!
1F!
0G!
0H!
1I!
0I!
#69000
0!
0O
07!
#70000
1!
1O
17!
1w!
0+"
08!
0<!
0_!
0t
02!
0b
0r
01
0A
#71000
0!
0O
07!
#72000
1!
1O
17!
0v!
0w!
1+"
18!
1<!
1_!
1=!
0>!
0_!
0=!
0u
03!
1t
12!
1>!
0a
0q
1b
1r
00
0@
11
1A
#73000
0!
0O
07!
#74000
1!
1O
17!
1w!
0+"
08!
0<!
1_!
1=!
0t
02!
0>!
0b
0r
01
0A
#75000
0!
0O
07!
#76000
1!
1O
17!
0u!
1v!
0w!
1+"
18!
1<!
0_!
0=!
1>!
0?!
1@!
1A!
0>!
1?!
1_!
1u
13!
0v
04!
1t
12!
0@!
0A!
1B!
0C!
1a
1q
0`
0p
1b
1r
10
0/
1@
0?
0\!
1D!
0B!
1C!
11
1A
1\!
0D!
1E!
0F!
1G!
1H!
0E!
1F!
0G!
0H!
1I!
0I!
#77000
0!
0O
07!
#78000
1!
1O
17!
1w!
0+"
08!
0<!
0_!
0t
02!
0b
0r
01
0A
#79000
0!
0O
07!
#80000
1!
1O
17!
0v!
0w!
1+"
18!
1<!
1_!
1=!
1>!
0?!
0_!
0=!
0u
03!
1t
12!
0>!
1?!
1@!
1A!
0a
0q
1b
1r
00
0@
1B!
0C!
0@!
0A!
11
1A
0B!
1C!
0\!
1D!
1E!
0F!
1\!
0D!
0E!
1F!
1G!
1H!
1I!
0G!
0H!
0I!
#81000
0!
0O
07!
#82000
1!
1O
17!
1w!
0+"
08!
0<!
1`!
0[!
0^!
1_!
1=!
0t
02!
0_!
0?!
0\!
1D!
1G!
1H!
0b
0r
1I!
1E!
0F!
1@!
1A!
01
0A
1B!
0C!
0G!
1\!
#83000
0!
0O
07!
#84000
1!
1O
17!
1t!
1s!
1q!
1o!
0w!
1+"
0#"
18!
1<!
0I!
0J!
0E!
1F!
0B!
1C!
0]!
0@!
0A!
0`!
1B!
1[!
1^!
0\!
1G!
1K!
1N!
1_!
1z
10!
1x
1.!
1w
15!
0|
0*!
1t
12!
1O!
0P!
0_!
0=!
1>!
1\!
0D!
0G!
0H!
1\
1l
1^
1n
1_
1o
0Z
0j
1b
1r
1.
1-
1+
1=
1;
1>
1I!
1J!
1E!
0>!
1?!
1Q!
11
0)
09
1A
1@!
0K!
0N!
0O!
1P!
0Q!
#85000
0!
0O
07!
#86000
1!
1O
17!
1w!
0+"
08!
0<!
1_!
1=!
0t
02!
1>!
0?!
0b
0r
0@!
01
0A
#87000
0!
0O
07!
#88000
1!
1O
17!
1u!
0t!
1v!
0w!
1+"
18!
1<!
0_!
0=!
1@!
1A!
0>!
1?!
0@!
0A!
0B!
1>!
1_!
1u
13!
0w
05!
1v
14!
1t
12!
1B!
1a
1q
0_
0o
1`
1p
1b
1r
10
1/
0.
1@
1?
0>
11
1A
#89000
0!
0O
07!
#90000
1!
1O
17!
1w!
0+"
08!
0<!
0_!
0t
02!
0b
0r
01
0A
#91000
0!
0O
07!
#92000
1!
1O
17!
0v!
0w!
1+"
18!
1<!
1_!
1=!
0>!
0_!
0=!
0u
03!
1t
12!
1>!
0a
0q
1b
1r
00
0@
11
1A
#93000
0!
0O
07!
#94000
1!
1O
17!
1w!
0+"
08!
0<!
1_!
1=!
0t
02!
0>!
0b
0r
01
0A
#95000
0!
0O
07!
#96000
1!
1O
17!
0u!
1v!
0w!
1+"
18!
1<!
0_!
0=!
1>!
0?!
1@!
1A!
0>!
1?!
1_!
1u
13!
0v
04!
1t
12!
0@!
0A!
0B!
1a
1q
0`
0p
1b
1r
10
0/
1@
0?
1B!
11
1A
#97000
0!
0O
07!
#98000
1!
1O
17!
1w!
0+"
08!
0<!
0_!
0t
02!
0b
0r
01
0A
#99000
0!
0O
07!
#100000
1!
1O
17!
0v!
0w!
1+"
18!
1<!
1_!
1=!
1>!
0?!
0_!
0=!
0u
03!
1t
12!
0>!
1?!
1@!
1A!
0a
0q
1b
1r
00
0@
0B!
0@!
0A!
11
1A
1B!
#101000
0!
0O
07!
#102000
1!
1O
17!
1w!
0+"
08!
0<!
1`!
0^!
1_!
1=!
0t
02!
0_!
0?!
0b
0r
1@!
1A!
01
0A
0B!
#103000
0!
0O
07!
#104000
1!
1O
17!
1t!
0s!
0w!
1+"
18!
1<!
1B!
0C!
0@!
0A!
0`!
1^!
0B!
1C!
0\!
1D!
1_!
0x
0.!
1w
15!
1t
12!
0E!
1\!
0D!
0_!
0=!
1>!
0^
0n
1_
1o
1b
1r
1.
0-
0=
1>
0>!
1?!
1E!
11
1A
1@!
#105000
0!
0O
07!
#106000
1!
1O
17!
1w!
0+"
08!
0<!
1_!
1=!
0t
02!
1>!
0?!
0b
0r
0@!
01
0A
#107000
0!
0O
07!
#108000
1!
1O
17!
1u!
0t!
1v!
0w!
1+"
18!
1<!
0_!
0=!
1@!
1A!
0>!
1?!
0@!
0A!
1B!
0C!
1>!
1_!
1u
13!
0w
05!
1v
14!
1t
12!
0\!
1D!
0B!
1C!
1a
1q
0_
0o
1`
1p
1b
1r
10
1/
0.
1@
1?
0>
1\!
0D!
0E!
11
1A
1E!
#109000
0!
0O
07!
#110000
1!
1O
17!
1w!
0+"
08!
0<!
0_!
0t
02!
0b
0r
01
0A
#111000
0!
0O
07!
#112000
1!
1O
17!
0v!
0w!
1+"
18!
1<!
1_!
1=!
0>!
0_!
0=!
0u
03!
1t
12!
1>!
0a
0q
1b
1r
00
0@
11
1A
#113000
0!
0O
07!
#114000
1!
1O
17!
1w!
0+"
08!
0<!
1_!
1=!
0t
02!
0>!
0b
0r
01
0A
#115000
0!
0O
07!
#116000
1!
1O
17!
0u!
1v!
0w!
1+"
18!
1<!
0_!
0=!
1>!
0?!
1@!
1A!
0>!
1?!
1_!
1u
13!
0v
04!
1t
12!
0@!
0A!
1B!
0C!
1a
1q
0`
0p
1b
1r
10
0/
1@
0?
0\!
1D!
0B!
1C!
11
1A
1\!
0D!
0E!
1E!
#117000
0!
0O
07!
#118000
1!
1O
17!
1w!
0+"
08!
0<!
0_!
0t
02!
0b
0r
01
0A
#119000
0!
0O
07!
#120000
1!
1O
17!
0v!
0w!
1+"
18!
1<!
1_!
1=!
1>!
0?!
0_!
0=!
0u
03!
1t
12!
0>!
1?!
1@!
1A!
0a
0q
1b
1r
00
0@
1B!
0C!
0@!
0A!
11
1A
0B!
1C!
0\!
1D!
0E!
1\!
0D!
1E!
#121000
0!
0O
07!
#122000
1!
1O
17!
1w!
0+"
08!
0<!
1`!
0^!
1_!
1=!
0t
02!
0_!
0?!
0b
0r
1@!
1A!
01
0A
1B!
0C!
0\!
1D!
0E!
#123000
0!
0O
07!
#124000
1!
1O
17!
1t!
1s!
0q!
0r!
0w!
1+"
1&"
18!
1<!
1\!
0D!
1E!
0F!
0B!
1C!
0@!
0A!
0`!
1^!
1B!
0\!
1G!
1H!
0E!
1F!
1_!
0z
00!
1x
1.!
1w
15!
1y
1/!
1t
12!
0G!
0H!
0I!
0J!
0_!
0=!
1>!
0\
0l
1^
1n
1_
1o
1]
1m
1b
1r
1.
1-
0+
1=
0;
1>
0>!
1?!
1K!
1N!
1I!
1J!
11
1,
1<
1A
0K!
0N!
1O!
0P!
1@!
1Q!
0O!
1P!
0Q!
#125000
0!
0O
07!
#126000
1!
1O
17!
1w!
0+"
08!
0<!
1_!
1=!
0t
02!
1>!
0?!
0b
0r
0@!
01
0A
#127000
0!
0O
07!
#128000
1!
1O
17!
1u!
0t!
1v!
0w!
1+"
18!
1<!
0_!
0=!
1@!
1A!
0>!
1?!
0@!
0A!
0B!
1>!
1_!
1u
13!
0w
05!
1v
14!
1t
12!
1B!
1a
1q
0_
0o
1`
1p
1b
1r
10
1/
0.
1@
1?
0>
11
1A
#129000
0!
0O
07!
#130000
1!
1O
17!
1w!
0+"
08!
0<!
0_!
0t
02!
0b
0r
01
0A
#131000
0!
0O
07!
#132000
1!
1O
17!
0v!
0w!
1+"
18!
1<!
1_!
1=!
0>!
0_!
0=!
0u
03!
1t
12!
1>!
0a
0q
1b
1r
00
0@
11
1A
#133000
0!
0O
07!
#134000
1!
1O
17!
1w!
0+"
08!
0<!
1_!
1=!
0t
02!
0>!
0b
0r
01
0A
#135000
0!
0O
07!
#136000
1!
1O
17!
0u!
1v!
0w!
1+"
18!
1<!
0_!
0=!
1>!
0?!
1@!
1A!
0>!
1?!
1_!
1u
13!
0v
04!
1t
12!
0@!
0A!
0B!
1a
1q
0`
0p
1b
1r
10
0/
1@
0?
1B!
11
1A
#137000
0!
0O
07!
#138000
1!
1O
17!
1w!
0+"
08!
0<!
0_!
0t
02!
0b
0r
01
0A
#139000
0!
0O
07!
#140000
1!
0D
1O
0R
0b!
17!
1x!
0v!
0w!
1d!
1+"
18!
1<!
1_!
1=!
0c!
0e!
1>!
0?!
0_!
0=!
0u
03!
1t
12!
0>!
1?!
1@!
1A!
0a
0q
1b
1r
00
0@
0B!
0@!
0A!
11
1A
1B!
#141000
0!
0O
07!
#142000
1!
1O
17!
#143000
0!
0O
07!
#144000
1!
1O
17!
#145000
0!
0O
07!
#146000
1!
1O
17!
#147000
0!
0O
07!
#148000
1!
1O
17!
#149000
0!
0O
07!
#150000
1!
1O
17!
#151000
0!
0O
07!
#152000
1!
1O
17!
#153000
0!
0O
07!
#154000
1!
1O
17!
#155000
0!
0O
07!
#156000
1!
1O
17!
#157000
0!
0O
07!
#158000
1!
1O
17!
#159000
0!
0O
07!
#160000
1!
1O
17!
#161000
0!
0O
07!
#162000
1!
1O
17!
#163000
0!
0O
07!
#164000
1!
1O
17!
#165000
0!
0O
07!
#166000
1!
1O
17!
#167000
0!
0O
07!
#168000
1!
1O
17!
#169000
0!
0O
07!
#170000
1!
1O
17!
#171000
0!
0O
07!
#172000
1!
1O
17!
#173000
0!
0O
07!
#174000
1!
1O
17!
#175000
0!
0O
07!
#176000
1!
1O
17!
#177000
0!
0O
07!
#178000
1!
1O
17!
#179000
0!
0O
07!
#180000
1!
1O
17!
#181000
0!
0O
07!
#182000
1!
1O
17!
#183000
0!
0O
07!
#184000
1!
1O
17!
#185000
0!
0O
07!
#186000
1!
1O
17!
#187000
0!
0O
07!
#188000
1!
1O
17!
#189000
0!
0O
07!
#190000
1!
1O
17!
#191000
0!
0O
07!
#192000
1!
1O
17!
#193000
0!
0O
07!
#194000
1!
1O
17!
#195000
0!
0O
07!
#196000
1!
1O
17!
#197000
0!
0O
07!
#198000
1!
1O
17!
#199000
0!
0O
07!
#200000
1!
1O
17!
#201000
0!
0O
07!
#202000
1!
1O
17!
#203000
0!
0O
07!
#204000
1!
1O
17!
#205000
0!
0O
07!
#206000
1!
1O
17!
#207000
0!
0O
07!
#208000
1!
1O
17!
#209000
0!
0O
07!
#210000
1!
1O
17!
#211000
0!
0O
07!
#212000
1!
1O
17!
#213000
0!
0O
07!
