1º ano/LSD/Aula1/simulation/qsim/GateDemo.msim.vcd
$comment
	File created using the following command:
		vcd file GateDemo.msim.vcd -direction
$end
$date
	Tue Feb 20 10:16:36 2018
$end
$version
	ModelSim Version 10.4b
$end
$timescale
	1ps
$end

$scope module GateDemo_vlg_vec_tst $end
$var reg 2 ! SW [1:0] $end
$var wire 1 " LEDR [0] $end

$scope module i1 $end
$var wire 1 # gnd $end
$var wire 1 $ vcc $end
$var wire 1 % unknown $end
$var tri1 1 & devclrn $end
$var tri1 1 ' devpor $end
$var tri1 1 ( devoe $end
$var wire 1 ) LEDR[0]~output_o $end
$var wire 1 * SW[1]~input_o $end
$var wire 1 + SW[0]~input_o $end
$var wire 1 , inst~combout $end
$upscope $end
$upscope $end
$enddefinitions $end
#0
$dumpvars
b0 !
0"
0#
1$
x%
1&
1'
1(
0)
0*
0+
0,
$end
#40000
b10 !
b11 !
1+
1*
1,
1)
1"
#220000
b1 !
0*
0,
0)
0"
#340000
b11 !
1*
1,
1)
1"
#400000
b1 !
0*
0,
0)
0"
#440000
b0 !
0+
#520000
b1 !
1+
#560000
b11 !
1*
1,
1)
1"
#640000
b10 !
0+
0,
0)
0"
#720000
b11 !
1+
1,
1)
1"
#740000
b1 !
0*
0,
0)
0"
#980000
b0 !
0+
